<svg xmlns="http://www.w3.org/2000/svg" viewBox="0 0 14 14" width="14" height="14">
    <g id="mail">
        <path d="M7 9L5.268 7.484.316 11.729c.18.167.423.271.691.271h11.986c.267 0 .509-.104.688-.271L8.732 7.484 7 9z"/>
        <path d="M13.684 2.271A1.007 1.007 0 0 0 12.993 2H1.007c-.267 0-.509.104-.689.273L7 8l6.684-5.729zM0 2.878v8.308l4.833-4.107zM9.167 7.079L14 11.186V2.875z"/>
    </g>

	<path id="phone" d="M7 0a7 7 0 1 0 0 14A7 7 0 0 0 7 0zm3.697 10.214l-.561.56c-.1.1-.393.163-.402.163A6.615 6.615 0 0 1 3.062 4.25s.065-.285.165-.384l.56-.56c.205-.207.6-.3.875-.208l.118.04c.275.092.564.396.64.677l.282 1.034c.076.281-.026.681-.231.887l-.375.374a3.975 3.975 0 0 0 2.795 2.796l.374-.375c.207-.206.606-.308.887-.232l1.034.283c.28.077.585.364.677.639l.04.12c.091.275-.001.669-.206.873z"/>
</svg>
