<svg xmlns="http://www.w3.org/2000/svg" height="18" viewBox="0 0 18 18" width="18">
    <path d="M9 0C4.05 0 0 4.05 0 9s4.05 9 9 9 9-4.05 9-9-4.05-9-9-9zm0 16.2c-3.96 0-7.2-3.24-7.2-7.2S5.04 1.8 9 1.8s7.2 3.24 7.2 7.2-3.24 7.2-7.2 7.2zm.45-11.7H8.1v5.4l4.68 2.88.72-1.17-4.05-2.43V4.5z" fill="#fff" fill-opacity=".9" fill-rule="evenodd"/>
</svg>
