<?xml version="1.0" standalone="no"?>
<!DOCTYPE svg PUBLIC "-//W3C//DTD SVG 1.1//EN" "http://www.w3.org/Graphics/SVG/1.1/DTD/svg11.dtd" >
<svg xmlns="http://www.w3.org/2000/svg">
<metadata></metadata>
<defs>
<font id="proxima_nova_rgbold" horiz-adv-x="518" >
<font-face units-per-em="2048" ascent="1618" descent="-430" />
<missing-glyph horiz-adv-x="524" />
<glyph horiz-adv-x="0" />
<glyph horiz-adv-x="0" />
<glyph horiz-adv-x="682" />
<glyph unicode="&#xd;" horiz-adv-x="0" />
<glyph unicode=" "  horiz-adv-x="524" />
<glyph unicode="&#x09;" horiz-adv-x="524" />
<glyph unicode="&#xa0;" horiz-adv-x="524" />
<glyph unicode="!" horiz-adv-x="524" d="M98 143q0 68 48.5 117t115.5 49q68 0 117 -49.5t49 -116.5q0 -66 -49.5 -114.5t-116.5 -48.5t-115.5 48.5t-48.5 114.5zM104 1366h314l-41 -922h-230z" />
<glyph unicode="&#x22;" horiz-adv-x="831" d="M90 1245q0 59 41 100t100 41q57 0 99.5 -41.5t42.5 -99.5q0 -17 -21 -136.5t-42 -230.5l-21 -110h-115q-84 438 -84 477zM461 1245q0 59 41.5 100t99.5 41t98.5 -41t40.5 -100q0 -17 -21 -136.5t-42 -230.5l-21 -110h-112q-84 438 -84 477z" />
<glyph unicode="#" horiz-adv-x="1265" d="M35 346l53 166h201l110 340h-200l51 164h207l114 350h193l-115 -350h193l114 350h195l-119 -350h199l-49 -164h-205l-113 -340h207l-51 -166h-211l-115 -346h-194l118 346h-194l-117 -346h-192l116 346h-196zM481 512h191l112 340h-192z" />
<glyph unicode="$" horiz-adv-x="1257" d="M61 193l158 221q134 -142 326 -176v323q-52 13 -91 24.5t-88 31t-84 40.5t-70.5 52t-57.5 68t-36 86.5t-14 107.5q0 159 119 274.5t322 136.5v191h194v-195q243 -26 416 -182l-162 -213q-104 95 -254 133v-289q52 -13 91.5 -25t88.5 -31.5t85 -40.5t72 -53t59 -68.5 t37 -86.5t14 -108q0 -176 -114.5 -292.5t-332.5 -139.5v-187h-194v185q-299 25 -484 213zM401 995q0 -42 37 -69t107 -47v249q-68 -9 -106 -44.5t-38 -88.5zM739 238q72 14 112 54t40 89q0 47 -38.5 76.5t-113.5 54.5v-274z" />
<glyph unicode="%" horiz-adv-x="1550" d="M53 1042q0 147 96 245.5t250 98.5q156 0 252.5 -98.5t96.5 -245.5q0 -145 -96.5 -240t-252.5 -95q-155 0 -250.5 95t-95.5 240zM238 1042q0 -79 45.5 -127.5t115.5 -48.5q71 0 116.5 48.5t45.5 127.5q0 85 -45 134t-117 49q-71 0 -116 -49.5t-45 -133.5zM266 0l873 1366 h155l-874 -1366h-154zM805 313q0 147 96 245.5t250 98.5t251 -98.5t97 -245.5q0 -145 -97 -241.5t-251 -96.5t-250 96.5t-96 241.5zM989 313q0 -82 45 -130t117 -48t118 48t46 130q0 83 -46 133t-118 50t-117 -49.5t-45 -133.5z" />
<glyph unicode="&#x26;" horiz-adv-x="1323" d="M49 371q0 75 23 137t66 109t91.5 81t112.5 66q-90 170 -90 295q0 139 111 233t280 94q151 0 254.5 -78t103.5 -210q0 -51 -12.5 -94.5t-38 -79t-53 -63t-71 -54t-76.5 -44t-84 -40.5q57 -77 118 -148q23 -29 64.5 -78.5t50.5 -60.5q82 127 125 264l209 -96 q-85 -188 -191 -330q123 -132 265 -274h-332q-52 49 -103 102q-166 -127 -372 -127q-197 0 -324 103t-127 293zM326 395q0 -97 61.5 -156t149.5 -59q100 0 196 70q-107 119 -151 174q-74 91 -138 180q-118 -84 -118 -209zM512 1053q0 -74 59 -185q99 48 152 97t53 118 q0 53 -34.5 84t-86.5 31q-61 0 -102 -41t-41 -104z" />
<glyph unicode="'" horiz-adv-x="460" d="M90 1245q0 59 41 100t100 41q57 0 99.5 -41.5t42.5 -99.5q0 -17 -21 -136.5t-42 -230.5l-21 -110h-115q-84 438 -84 477z" />
<glyph unicode="(" horiz-adv-x="608" d="M84 498q0 248 87.5 492t236.5 413l163 -123q-107 -194 -156.5 -376.5t-49.5 -405.5q0 -224 50 -406t156 -373l-163 -127q-149 167 -236.5 412.5t-87.5 493.5z" />
<glyph unicode=")" horiz-adv-x="608" d="M35 -281q108 189 158.5 371.5t50.5 407.5t-50 407t-159 375l164 123q151 -169 239 -413t88 -492t-88.5 -493.5t-238.5 -412.5z" />
<glyph unicode="*" horiz-adv-x="718" d="M51 965l199 102l-199 102l64 113l190 -121l-10 225h129l-10 -225l188 121l66 -113l-199 -102l199 -102l-66 -111l-188 121l10 -225h-129l10 225l-190 -121z" />
<glyph unicode="+" horiz-adv-x="1032" d="M59 610v162h369v399h178v-399h367v-162h-367v-415h-178v415h-369z" />
<glyph unicode="," horiz-adv-x="524" d="M96 145q0 67 47.5 115.5t112.5 48.5q76 0 130 -56.5t54 -152.5q0 -112 -57 -211.5t-154 -169.5l-112 93q51 27 98 83.5t59 108.5q-18 -6 -38 -6q-60 0 -100 41t-40 106z" />
<glyph unicode="-" horiz-adv-x="614" d="M61 385v221h492v-221h-492z" />
<glyph unicode="." horiz-adv-x="524" d="M96 143q0 67 49 116.5t117 49.5t117 -49.5t49 -116.5t-49 -116.5t-117 -49.5t-117 49.5t-49 116.5z" />
<glyph unicode="/" horiz-adv-x="673" d="M0 -41l485 1448h189l-486 -1448h-188z" />
<glyph unicode="0" horiz-adv-x="1269" d="M70 682q0 136 34 259t101 224t178 161t252 60t251.5 -60t177.5 -161t101.5 -224t34.5 -259q0 -108 -21 -209t-66.5 -192t-110.5 -158.5t-159.5 -107.5t-207.5 -40q-141 0 -252 60.5t-178 162t-101 225t-34 259.5zM365 682q0 -98 15 -177t46 -141.5t84 -96.5t125 -34 q94 0 155.5 61t87 158.5t25.5 229.5q0 98 -15 176.5t-45.5 140.5t-83.5 95.5t-124 33.5q-72 0 -125 -33.5t-84 -95.5t-46 -140.5t-15 -176.5z" />
<glyph unicode="1" horiz-adv-x="841" d="M23 934l430 432h254v-1366h-291v991l-228 -231z" />
<glyph unicode="2" horiz-adv-x="1228" d="M66 1163q96 111 236 167t290 56q146 0 264 -51.5t188 -152t70 -232.5q0 -167 -132.5 -328t-414.5 -366h557v-256h-1028v227q183 136 292 220t202 163.5t137.5 133.5t68 104.5t23.5 101.5q0 85 -65 131.5t-156 46.5q-217 0 -367 -157z" />
<glyph unicode="3" horiz-adv-x="1202" d="M41 195l152 194q69 -72 172 -114t204 -42q122 0 190 48.5t68 126.5q0 82 -65.5 119.5t-208.5 37.5q-130 0 -170 -4v262q25 -2 170 -2q118 0 185 36.5t67 109.5q0 79 -70.5 120t-183.5 41q-199 0 -346 -141l-146 182q193 217 523 217q239 0 377.5 -99.5t138.5 -270.5 q0 -122 -88 -205.5t-211 -105.5q54 -5 108.5 -28.5t102.5 -63t78 -101.5t30 -135q0 -179 -147 -290.5t-391 -111.5q-180 0 -319.5 61t-219.5 159z" />
<glyph unicode="4" horiz-adv-x="1222" d="M51 283v229l543 854h401v-827h176v-256h-176v-283h-290v283h-654zM336 539h369v569z" />
<glyph unicode="5" horiz-adv-x="1245" d="M100 180l162 203q144 -150 363 -150q118 0 186 58t68 145q0 92 -65.5 147.5t-180.5 55.5q-170 0 -287 -111l-203 54v784h938v-256h-647v-334q52 52 131 83.5t170 31.5q117 0 216 -52t161 -154.5t62 -235.5q0 -217 -149 -345.5t-398 -128.5q-338 0 -527 205z" />
<glyph unicode="6" horiz-adv-x="1245" d="M70 680q0 208 74.5 366.5t219.5 249t343 90.5q238 0 403 -141l-131 -223q-58 55 -121 80.5t-151 25.5q-149 0 -245.5 -111t-96.5 -276q0 -18 2 -28q50 73 146.5 124.5t203.5 51.5q126 0 230 -49.5t169.5 -152.5t65.5 -243q0 -202 -146 -335.5t-377 -133.5 q-151 0 -266.5 55.5t-184.5 153.5t-103.5 223t-34.5 273zM367 510q5 -52 22 -99t48.5 -88t84.5 -65.5t121 -24.5q112 0 178 61.5t66 139.5q0 101 -73.5 153t-180.5 52q-77 0 -147 -34t-119 -95z" />
<glyph unicode="7" horiz-adv-x="1116" d="M49 1110v256h1026v-203l-508 -1163h-319l489 1110h-688z" />
<glyph unicode="8" horiz-adv-x="1241" d="M72 354q0 120 82 213t211 138q-271 94 -271 321q0 92 46 163.5t123 113t168 62.5t190 21q98 0 189 -21t168 -62.5t123 -113t46 -163.5q0 -226 -273 -321q129 -45 212 -138t83 -213q0 -122 -78.5 -210t-200 -128.5t-269.5 -40.5q-87 0 -167 14.5t-150 45.5t-121.5 75 t-81 106.5t-29.5 137.5zM367 391q0 -74 72.5 -120t181.5 -46q107 0 180 46.5t73 119.5q0 41 -27 75t-69 55t-81.5 34t-75.5 18q-37 -5 -77 -18t-81.5 -34t-68.5 -55t-27 -75zM389 981q0 -36 24 -66t61.5 -49t74 -30.5t72.5 -16.5q35 5 71.5 16.5t73.5 30.5t60.5 49t23.5 66 q0 72 -63.5 114t-165.5 42q-103 0 -167.5 -42t-64.5 -114z" />
<glyph unicode="9" horiz-adv-x="1245" d="M61 920q0 202 147 335.5t378 133.5q121 0 219.5 -36.5t166.5 -100.5t114 -154t67 -194t21 -222q0 -207 -74 -365.5t-219 -249t-342 -90.5q-243 0 -402 142l129 223q58 -54 121.5 -80t151.5 -26q108 0 187.5 56t117 142t37.5 187v30q-53 -74 -149.5 -125t-203.5 -51 q-126 0 -230.5 49.5t-170.5 152.5t-66 243zM358 930q0 -68 37.5 -116t92.5 -68.5t122 -20.5q77 0 148.5 33.5t120.5 93.5q-5 52 -22 99t-49 88.5t-85.5 66t-122.5 24.5q-110 0 -176 -61.5t-66 -138.5z" />
<glyph unicode=":" horiz-adv-x="514" d="M96 143q0 67 49 116.5t117 49.5t117 -49.5t49 -116.5t-49 -116.5t-117 -49.5t-117 49.5t-49 116.5zM96 838q0 68 49 117t117 49t117 -49t49 -117t-49 -117t-117 -49t-117 49t-49 117z" />
<glyph unicode=";" horiz-adv-x="524" d="M96 152q0 67 47.5 114t112.5 47q76 0 130 -56.5t54 -152.5q0 -112 -57 -211t-154 -169l-112 92q52 29 98.5 85.5t58.5 108.5q-24 -8 -38 -8q-59 0 -99.5 42.5t-40.5 107.5zM96 838q0 68 49 117t117 49t117 -49t49 -117q0 -66 -49.5 -116t-116.5 -50t-116.5 50t-49.5 116z " />
<glyph unicode="&#x3c;" horiz-adv-x="1032" d="M59 592v186l914 410v-193l-727 -311l727 -307v-193z" />
<glyph unicode="=" horiz-adv-x="1032" d="M59 412v159h914v-159h-914zM59 795v163h914v-163h-914z" />
<glyph unicode="&#x3e;" horiz-adv-x="1032" d="M59 184v193l727 307l-727 311v193l914 -410v-186z" />
<glyph unicode="?" horiz-adv-x="933" d="M18 1188q81 95 198.5 146.5t250.5 51.5q196 0 311 -89.5t115 -233.5q0 -61 -19 -112t-49 -87t-66.5 -66.5t-73 -56.5t-66.5 -51t-49 -55.5t-19 -65.5q0 -53 37 -86l-223 -65q-68 74 -68 180q0 50 16.5 92t43 72t58 56.5t63.5 48.5t58.5 43.5t43 47.5t16.5 54 q0 51 -40 83.5t-120 32.5q-147 0 -252 -127zM297 143q0 67 49.5 116.5t116.5 49.5t116.5 -49.5t49.5 -116.5t-49.5 -116.5t-116.5 -49.5t-116.5 49.5t-49.5 116.5z" />
<glyph unicode="@" horiz-adv-x="1603" d="M72 500q0 160 67.5 309.5t178.5 258t260.5 174t306.5 65.5q190 0 339 -86t227.5 -228.5t78.5 -312.5q0 -123 -38 -223t-98.5 -160t-130.5 -91.5t-139 -31.5q-87 0 -137.5 44t-60.5 108l-2 12q-54 -76 -133 -120t-162 -44q-147 0 -232.5 96t-85.5 248q0 133 66 250 t172.5 184.5t224.5 67.5q89 0 155.5 -38t100.5 -99l23 108h231l-104 -499q-6 -36 -6 -50q0 -45 20.5 -68.5t54.5 -23.5q32 0 64.5 19.5t62 57.5t48 104t18.5 149q0 245 -154.5 396t-410.5 151q-142 0 -276 -59.5t-232 -158t-157.5 -231.5t-59.5 -274q0 -159 74.5 -289.5 t207 -205.5t295.5 -75q196 0 375 113l43 -61q-200 -129 -426 -129q-183 0 -332 85t-233 232t-84 326zM549 539q0 -80 46.5 -130.5t123.5 -50.5q128 0 227 134l51 239q-21 42 -63 73.5t-103 31.5q-119 0 -200.5 -90t-81.5 -207z" />
<glyph unicode="A" horiz-adv-x="1400" d="M-10 0l528 1366h365l526 -1366h-332l-84 231h-585l-86 -231h-332zM487 487h426l-213 588z" />
<glyph unicode="B" horiz-adv-x="1357" d="M135 0v1366h719q94 0 170.5 -28.5t124 -77.5t73 -111t25.5 -131q0 -124 -67 -208t-168 -105q110 -17 186 -113t76 -223q0 -161 -104.5 -265t-292.5 -104h-742zM426 252h375q83 0 129.5 42t46.5 116q0 68 -46.5 113.5t-129.5 45.5h-375v-317zM426 819h365q73 0 116 41.5 t43 106.5q0 66 -43.5 107.5t-115.5 41.5h-365v-297z" />
<glyph unicode="C" horiz-adv-x="1406" d="M70 682q0 155 56 287.5t153.5 224t231.5 143.5t286 52q108 0 201.5 -27.5t162 -76.5t118.5 -105.5t89 -124.5l-250 -123q-44 86 -131 142t-190 56q-186 0 -307 -127t-121 -321t121 -321.5t307 -127.5q103 0 190 56t131 143l250 -121q-194 -336 -571 -336q-152 0 -286 52 t-231.5 143.5t-153.5 224t-56 287.5z" />
<glyph unicode="D" horiz-adv-x="1470" d="M135 0v1366h539q212 0 377 -84.5t256.5 -240.5t91.5 -359t-91.5 -358.5t-256.5 -239.5t-377 -84h-539zM426 256h248q196 0 312 123t116 303q0 189 -112 308.5t-316 119.5h-248v-854z" />
<glyph unicode="E" horiz-adv-x="1193" d="M135 0v1366h967v-256h-676v-289h661v-256h-661v-309h676v-256h-967z" />
<glyph unicode="F" horiz-adv-x="1169" d="M135 0v1366h967v-256h-676v-289h661v-256h-661v-565h-291z" />
<glyph unicode="G" horiz-adv-x="1474" d="M70 682q0 210 99 373t263.5 248.5t364.5 85.5q199 0 339 -85t226 -221l-242 -131q-49 77 -134.5 127.5t-188.5 50.5q-186 0 -307 -127t-121 -321t121 -321.5t307 -127.5q85 0 164.5 31.5t125.5 73.5v164h-360v254h651v-525q-230 -258 -581 -258q-149 0 -282 51 t-231.5 141.5t-156 224.5t-57.5 292z" />
<glyph unicode="H" horiz-adv-x="1497" d="M135 0v1366h291v-537h645v537h293v-1366h-293v573h-645v-573h-291z" />
<glyph unicode="I" horiz-adv-x="561" d="M135 0v1366h291v-1366h-291z" />
<glyph unicode="J" horiz-adv-x="995" d="M12 109l127 223q103 -99 217 -99q97 0 155 60t58 160v913h291v-917q0 -158 -62.5 -266t-168.5 -158t-250 -50q-230 0 -367 134z" />
<glyph unicode="K" horiz-adv-x="1302" d="M135 0v1366h291v-610l483 610h359l-543 -641l580 -725h-359l-414 547l-106 -127v-420h-291z" />
<glyph unicode="L" horiz-adv-x="1071" d="M135 0v1366h291v-1110h578v-256h-869z" />
<glyph unicode="M" horiz-adv-x="1751" d="M135 0v1366h408l331 -825l332 825h410v-1366h-293v956l-385 -956h-127l-385 956v-956h-291z" />
<glyph unicode="N" horiz-adv-x="1492" d="M135 0v1366h299l633 -858v858h291v-1366h-281l-651 891v-891h-291z" />
<glyph unicode="O" horiz-adv-x="1566" d="M70 682q0 152 53.5 284t147.5 224.5t226.5 145.5t284.5 53q205 0 368 -90t255 -252t92 -365t-92 -365t-255 -252t-368 -90q-152 0 -284.5 53t-226.5 145.5t-147.5 224.5t-53.5 284zM369 682q0 -194 113.5 -321.5t299.5 -127.5t301 127.5t115 321.5q0 195 -115 321.5 t-301 126.5t-299.5 -126.5t-113.5 -321.5z" />
<glyph unicode="P" horiz-adv-x="1277" d="M135 0v1366h639q108 0 196.5 -35t145 -95t87 -139.5t30.5 -170.5q0 -90 -30.5 -169.5t-87.5 -140t-145 -96t-196 -35.5h-348v-485h-291zM426 741h309q88 0 144.5 51t56.5 134q0 85 -56.5 134.5t-144.5 49.5h-309v-369z" />
<glyph unicode="Q" horiz-adv-x="1566" d="M70 682q0 152 53.5 284t147.5 224.5t226.5 145.5t284.5 53q205 0 368 -90t255 -252t92 -365q0 -289 -178 -483l100 -117l-202 -166l-111 127q-152 -68 -324 -68q-152 0 -284.5 53t-226.5 145.5t-147.5 224.5t-53.5 284zM369 682q0 -194 113.5 -321.5t299.5 -127.5 q70 0 144 23l-150 176l201 166l151 -178q70 115 70 262q0 195 -115 321.5t-301 126.5t-299.5 -126.5t-113.5 -321.5z" />
<glyph unicode="R" horiz-adv-x="1316" d="M135 0v1366h639q210 0 334.5 -123t124.5 -317q0 -87 -25.5 -160t-69 -121.5t-95 -79.5t-109.5 -45l307 -520h-334l-268 485h-213v-485h-291zM426 741h305q90 0 147.5 50t57.5 135t-57.5 134.5t-147.5 49.5h-305v-369z" />
<glyph unicode="S" horiz-adv-x="1228" d="M43 193l158 221q79 -82 190 -133.5t244 -51.5q114 0 175.5 44.5t61.5 107.5q0 38 -27 66.5t-72.5 46.5t-104.5 33t-124 30.5t-130 35t-124 51t-104.5 73.5t-72.5 107t-27 147q0 176 141.5 295.5t376.5 119.5q328 0 533 -190l-162 -213q-81 74 -185 112t-212 38 q-92 0 -143.5 -37.5t-51.5 -100.5q0 -38 33.5 -66.5t89 -44t126 -34t143.5 -36t143.5 -50t126 -75t89 -113.5t33.5 -162q0 -196 -139.5 -317.5t-406.5 -121.5q-363 0 -578 218z" />
<glyph unicode="T" horiz-adv-x="1191" d="M51 1110v256h1090v-256h-398v-1110h-292v1110h-400z" />
<glyph unicode="U" horiz-adv-x="1501" d="M135 545v821h295v-811q0 -146 83.5 -234t238.5 -88q154 0 236.5 87.5t82.5 234.5v811h297v-819q0 -264 -156.5 -418t-459.5 -154q-153 0 -271.5 41.5t-193.5 117.5t-113.5 180t-38.5 231z" />
<glyph unicode="V" horiz-adv-x="1400" d="M-10 1366h332l378 -1051l377 1051h332l-526 -1366h-365z" />
<glyph unicode="W" horiz-adv-x="1880" d="M2 1366h326l239 -987l260 987h228l258 -987l237 987h328l-389 -1366h-309l-240 938l-238 -938h-309z" />
<glyph unicode="X" horiz-adv-x="1368" d="M-6 0l495 700l-464 666h346l313 -467l309 467h350l-464 -664l495 -702h-348l-342 500l-344 -500h-346z" />
<glyph unicode="Y" horiz-adv-x="1320" d="M-10 1366h332l340 -549l335 549h332l-522 -807v-559h-291v559z" />
<glyph unicode="Z" horiz-adv-x="1212" d="M86 0v236l645 874h-645v256h1026v-233l-645 -877h659v-256h-1040z" />
<glyph unicode="[" horiz-adv-x="573" d="M96 -389v1778h443v-175h-256v-1429h256v-174h-443z" />
<glyph unicode="\" horiz-adv-x="673" d="M0 1407h188l486 -1448h-189z" />
<glyph unicode="]" horiz-adv-x="573" d="M35 -215h256v1429h-256v175h442v-1778h-442v174z" />
<glyph unicode="^" horiz-adv-x="903" d="M39 682l319 684h191l315 -684h-192l-221 506l-220 -506h-192z" />
<glyph unicode="_" horiz-adv-x="1155" d="M-6 -82h1167v-174h-1167v174z" />
<glyph unicode="`" horiz-adv-x="514" d="M0 1434h238l276 -295h-182z" />
<glyph unicode="a" horiz-adv-x="1112" d="M66 303q0 67 20.5 122t55 91t79.5 60.5t92.5 35.5t96.5 11q99 0 181.5 -31.5t131.5 -89.5v133q0 75 -59.5 120.5t-157.5 45.5q-163 0 -289 -117l-98 174q178 156 432 156q89 0 163 -19t136.5 -61t97.5 -117t35 -178v-639h-260v102q-51 -60 -133.5 -93.5t-179.5 -33.5 q-61 0 -120.5 21t-110.5 60t-82 103.5t-31 143.5zM328 297q0 -67 53.5 -106t132.5 -39q65 0 121.5 22t87.5 64v122q-31 42 -87.5 64t-121.5 22q-80 0 -133 -39.5t-53 -109.5z" />
<glyph unicode="b" horiz-adv-x="1200" d="M129 0v1366h260v-504q58 74 137 113t168 39q193 0 316 -140.5t123 -379.5q0 -241 -123 -380t-316 -139q-184 0 -305 152v-127h-260zM389 317q32 -47 96 -78.5t127 -31.5q114 0 183 79t69 208t-69 208.5t-183 79.5q-63 0 -127 -32.5t-96 -81.5v-351z" />
<glyph unicode="c" horiz-adv-x="1021" d="M66 496q0 227 147.5 372.5t376.5 145.5q260 0 391 -178l-170 -160q-71 106 -209 106q-119 0 -193.5 -79t-74.5 -207q0 -129 74.5 -209t193.5 -80q134 0 209 106l170 -157q-57 -79 -154 -130t-237 -51q-229 0 -376.5 146.5t-147.5 374.5z" />
<glyph unicode="d" horiz-adv-x="1200" d="M66 494q0 239 122.5 379.5t315.5 140.5q89 0 168 -39t137 -113v504h262v-1366h-262v127q-121 -152 -305 -152q-193 0 -315.5 138.5t-122.5 380.5zM334 494q0 -127 70 -207t180 -80q66 0 129.5 31.5t95.5 80.5v351q-32 49 -95.5 80.5t-129.5 31.5q-111 0 -180.5 -79.5 t-69.5 -208.5z" />
<glyph unicode="e" horiz-adv-x="1132" d="M66 496q0 143 64.5 261t182.5 187.5t265 69.5q221 0 358 -151t137 -394v-57h-735q13 -99 88.5 -164.5t196.5 -65.5q66 0 142 27.5t122 71.5l114 -168q-72 -66 -180.5 -102t-226.5 -36q-229 0 -378.5 143.5t-149.5 377.5zM334 588h487q-2 38 -16.5 74.5t-42 70t-75.5 54 t-109 20.5q-58 0 -104.5 -20t-74.5 -53t-44 -70t-21 -76z" />
<glyph unicode="f" horiz-adv-x="669" d="M23 762v227h163v53q0 157 92 250.5t242 93.5q173 0 258 -92l-98 -153q-41 41 -109 41q-56 0 -89 -36.5t-33 -103.5v-53h200v-227h-200v-762h-263v762h-163z" />
<glyph unicode="g" horiz-adv-x="1198" d="M66 510q0 237 121.5 370.5t314.5 133.5q183 0 305 -152v127h262v-921q0 -109 -32.5 -193t-84.5 -135t-124 -84t-143 -45t-150 -12q-132 0 -233.5 33.5t-192.5 113.5l116 188q111 -122 310 -122q51 0 96 12t86 39t65.5 77.5t24.5 120.5v101q-124 -156 -305 -156 q-193 0 -314.5 132t-121.5 372zM334 510q0 -126 69 -199t181 -73q64 0 127 32t96 80v320q-32 49 -95 80.5t-128 31.5q-112 0 -181 -73t-69 -199z" />
<glyph unicode="h" horiz-adv-x="1187" d="M129 0v1366h260v-506q53 64 144 109t204 45q160 0 241 -82t81 -230v-702h-260v602q0 98 -47.5 139t-137.5 41q-70 0 -128.5 -33.5t-96.5 -82.5v-666h-260z" />
<glyph unicode="i" d="M102 1251q0 64 46 109t110 45q65 0 110.5 -45t45.5 -109t-45.5 -109.5t-110.5 -45.5q-63 0 -109.5 45.5t-46.5 109.5zM129 0v989h260v-989h-260z" />
<glyph unicode="j" d="M-211 -332l72 195q60 -51 133 -51q62 0 98.5 40.5t36.5 120.5v1016h260v-1016q0 -174 -89 -274t-263 -100q-90 0 -140.5 15t-107.5 54zM102 1251q0 64 46 109t110 45q65 0 110.5 -45t45.5 -109t-45.5 -109.5t-110.5 -45.5q-63 0 -109.5 45.5t-46.5 109.5z" />
<glyph unicode="k" horiz-adv-x="1095" d="M129 0v1366h260v-817l375 440h319l-391 -448l404 -541h-326l-262 381l-119 -127v-254h-260z" />
<glyph unicode="l" d="M129 0v1366h260v-1366h-260z" />
<glyph unicode="m" horiz-adv-x="1744" d="M129 0v989h260v-129q37 54 129 104t195 50q107 0 176.5 -47t97.5 -133q46 73 139.5 126.5t200.5 53.5q139 0 215 -75t76 -224v-715h-262v625q0 73 -36 115t-112 42q-63 0 -117.5 -34t-86.5 -80v-668h-263v625q0 157 -147 157q-62 0 -117 -34.5t-88 -81.5v-666h-260z" />
<glyph unicode="n" horiz-adv-x="1185" d="M129 0v989h260v-129q54 65 144 109.5t202 44.5q159 0 240.5 -83.5t81.5 -232.5v-698h-260v598q0 98 -47.5 141t-135.5 43q-71 0 -130 -33.5t-95 -82.5v-666h-260z" />
<glyph unicode="o" horiz-adv-x="1175" d="M66 496q0 142 61.5 258.5t182 188t278.5 71.5q159 0 280 -71.5t182.5 -188t61.5 -258.5q0 -106 -36.5 -200.5t-102 -166t-165.5 -113t-220 -41.5q-158 0 -278.5 71.5t-182 189t-61.5 260.5zM336 496q0 -122 67.5 -205.5t184.5 -83.5t185.5 83.5t68.5 205.5 q0 121 -68.5 203.5t-185.5 82.5t-184.5 -82.5t-67.5 -203.5z" />
<glyph unicode="p" horiz-adv-x="1193" d="M129 -377v1366h260v-125q119 150 305 150q195 0 317 -138t122 -380t-122 -381.5t-317 -139.5q-186 0 -305 152v-504h-260zM389 319q33 -47 97 -79.5t126 -32.5q112 0 181 80t69 209q0 128 -69 207t-181 79q-63 0 -127 -32.5t-96 -79.5v-351z" />
<glyph unicode="q" horiz-adv-x="1193" d="M61 496q0 242 122 380t317 138q186 0 305 -150v125h262v-1366h-262v504q-119 -152 -305 -152q-195 0 -317 139.5t-122 381.5zM332 496q0 -129 69.5 -209t180.5 -80q62 0 126 32.5t97 79.5v351q-32 47 -96 79.5t-127 32.5q-111 0 -180.5 -79.5t-69.5 -206.5z" />
<glyph unicode="r" horiz-adv-x="737" d="M129 0v989h260v-135q55 69 141 114.5t175 45.5v-254q-27 6 -72 6q-66 0 -139 -33.5t-105 -79.5v-653h-260z" />
<glyph unicode="s" horiz-adv-x="976" d="M43 129l113 182q57 -54 155.5 -94.5t186.5 -40.5q82 0 124 29.5t42 77.5q0 33 -32.5 54t-84.5 33t-114.5 23.5t-125 32t-114.5 51.5t-84.5 88.5t-32.5 136.5q0 131 109 221.5t296 90.5q230 0 400 -135l-105 -179q-46 49 -126 82t-167 33q-69 0 -112 -28t-43 -70 q0 -29 32.5 -48t84 -31t113.5 -23.5t124.5 -33.5t114 -54.5t84 -92.5t32.5 -141q0 -139 -114 -228.5t-314 -89.5q-129 0 -246.5 41t-195.5 113z" />
<glyph unicode="t" horiz-adv-x="692" d="M16 762v227h164v271h262v-271h201v-227h-201v-447q0 -47 24 -77.5t66 -30.5q28 0 54 9t37 20l55 -197q-71 -64 -217 -64q-137 0 -209 69.5t-72 201.5v516h-164z" />
<glyph unicode="u" horiz-adv-x="1185" d="M129 287v702h260v-600q0 -98 47 -140t135 -42q70 0 129 32t97 80v670h260v-989h-260v125q-58 -65 -146.5 -107.5t-201.5 -42.5q-159 0 -239.5 82t-80.5 230z" />
<glyph unicode="v" horiz-adv-x="1050" d="M-12 989h278l258 -688l258 688h281l-397 -989h-281z" />
<glyph unicode="w" horiz-adv-x="1574" d="M0 989h270l185 -665l217 665h231l217 -665l185 665h270l-301 -989h-277l-209 674l-208 -674h-279z" />
<glyph unicode="x" horiz-adv-x="1032" d="M0 0l350 508l-330 481h291l205 -305l203 305h291l-332 -481l354 -508h-291l-225 334l-227 -334h-289z" />
<glyph unicode="y" horiz-adv-x="1050" d="M-12 989h278l258 -688l258 688h281l-465 -1151q-52 -131 -144 -183.5t-231 -55.5q-71 0 -129 14l39 233q37 -16 82 -16q103 0 137 72l37 84z" />
<glyph unicode="z" horiz-adv-x="980" d="M86 0v195l446 567h-446v227h799v-188l-453 -574h461v-227h-807z" />
<glyph unicode="{" horiz-adv-x="589" d="M6 426v147q52 0 79.5 39t27.5 99v350q0 147 94 237.5t223 90.5h125v-175h-125q-54 0 -90.5 -42t-36.5 -109v-379q0 -144 -94 -184q94 -40 94 -185v-376q0 -68 36.5 -111t90.5 -43h125v-174h-125q-129 0 -223 90t-94 236v352q0 60 -27.5 98.5t-79.5 38.5z" />
<glyph unicode="|" horiz-adv-x="442" d="M135 -41v1448h174v-1448h-174z" />
<glyph unicode="}" horiz-adv-x="589" d="M35 -215h125q54 0 91.5 43t37.5 111v376q0 145 94 185q-94 40 -94 184v379q0 67 -37.5 109t-91.5 42h-125v175h125q129 0 223 -90.5t94 -237.5v-350q0 -60 27.5 -99t79.5 -39v-147q-52 0 -79.5 -38.5t-27.5 -98.5v-352q0 -146 -94 -236t-223 -90h-125v174z" />
<glyph unicode="~" horiz-adv-x="1044" d="M53 864q7 81 17.5 146.5t33 134t54.5 114.5t83 75.5t117 29.5q74 0 123.5 -37.5t72.5 -91t39.5 -106.5t38 -90.5t54.5 -37.5q101 0 129 365l176 -20q-7 -83 -17 -148t-32.5 -134t-54 -115t-83 -75.5t-118.5 -29.5q-54 0 -95 20t-65 51.5t-41.5 70t-29.5 77t-24 70 t-30 51.5t-43 20q-98 0 -127 -360z" />
<glyph unicode="&#xa2;" horiz-adv-x="1021" d="M66 496q0 201 118 341t310 169v151h188v-149q197 -31 299 -172l-170 -160q-52 74 -129 94v-553q75 23 129 96l170 -157q-104 -147 -299 -174v-187h-188v189q-192 29 -310 169t-118 343zM334 496q0 -96 43 -167t117 -102v535q-75 -31 -117.5 -101t-42.5 -165z" />
<glyph unicode="&#xa3;" horiz-adv-x="1126" d="M47 551v166h139q-94 129 -94 246q0 94 43.5 175t114 134.5t159.5 83.5t181 30q346 0 475 -247l-231 -135q-27 65 -83 105t-126 40q-92 0 -153.5 -53.5t-61.5 -139.5q0 -29 4.5 -54.5t18.5 -54.5t20 -41t30 -48t27 -41h295v-166h-232q0 -6 1 -19.5t1 -19.5 q0 -70 -36.5 -131t-94.5 -96q43 14 101 14q62 0 139.5 -34t126.5 -34q61 0 107 22.5t69 53.5l115 -231q-99 -103 -301 -103q-76 0 -142 22.5t-122 45t-107 22.5q-97 0 -237 -77l-99 198q101 48 162 114.5t61 141.5q0 51 -24 111h-246z" />
<glyph unicode="&#xa5;" horiz-adv-x="1320" d="M-10 1366h332l340 -549l335 549h332l-418 -645h365v-162h-469v-164h469v-159h-469v-236h-291v236h-467v159h467v164h-467v162h361z" />
<glyph unicode="&#xa8;" horiz-adv-x="604" d="M-53 1251q0 57 40.5 97.5t98.5 40.5q57 0 97 -40.5t40 -97.5q0 -58 -40 -98.5t-97 -40.5q-58 0 -98.5 40t-40.5 99zM379 1251q0 57 41 97.5t98 40.5t98 -40.5t41 -97.5q0 -58 -41 -98.5t-98 -40.5t-98 40.5t-41 98.5z" />
<glyph unicode="&#xa9;" horiz-adv-x="1593" d="M90 684q0 192 95 355t258 257.5t354 94.5q144 0 275 -56t225 -150.5t150 -225.5t56 -275q0 -143 -56 -274t-150 -226t-225 -151t-275 -56q-191 0 -354 95t-258 258t-95 354zM164 684q0 -170 85.5 -316t231.5 -231.5t316 -85.5q171 0 317 85.5t231 231.5t85 316 q0 128 -50.5 245.5t-135 202t-202 135t-245.5 50.5q-170 0 -316 -85t-231.5 -231t-85.5 -317zM381 686q0 185 123.5 307.5t302.5 122.5q187 0 303 -135l-63 -63q-40 54 -104 85t-136 31q-138 0 -235 -98t-97 -250q0 -150 97.5 -251t234.5 -101q73 0 137.5 32t104.5 87 l63 -62q-120 -139 -305 -139q-179 0 -302.5 124t-123.5 310z" />
<glyph unicode="&#xab;" horiz-adv-x="1079" d="M61 498l328 362h240l-328 -362l328 -369h-240zM451 498l327 362h240l-328 -362l328 -369h-240z" />
<glyph unicode="&#xad;" horiz-adv-x="614" d="M61 385v221h492v-221h-492z" />
<glyph unicode="&#xae;" horiz-adv-x="1011" d="M72 952q0 181 127 307.5t307 126.5q119 0 219 -57.5t157.5 -157.5t57.5 -219q0 -180 -126.5 -307t-307.5 -127q-180 0 -307 127t-127 307zM137 952q0 -152 107.5 -260t261.5 -108q152 0 260 108t108 260q0 154 -108 261.5t-260 107.5q-154 0 -261.5 -107.5t-107.5 -261.5 zM340 702v498h203q66 0 114 -42t48 -109q0 -72 -46 -110t-81 -38l133 -199h-86l-129 197h-86v-197h-70zM410 963h133q34 0 62 24.5t28 61.5q0 39 -28 64.5t-62 25.5h-133v-176z" />
<glyph unicode="&#xb4;" horiz-adv-x="514" d="M0 1139l274 295h240l-332 -295h-182z" />
<glyph unicode="&#xb8;" horiz-adv-x="452" d="M0 -336l51 105q78 -60 166 -60q44 0 75.5 18t31.5 50q0 53 -60 53q-36 0 -65 -29l-95 54l62 168h129l-53 -127q33 20 73 20q58 0 98 -40t40 -103q0 -79 -66 -126.5t-162 -47.5q-70 0 -130.5 18.5t-94.5 46.5z" />
<glyph unicode="&#xbb;" horiz-adv-x="1079" d="M61 129l328 369l-328 362h240l328 -362l-328 -369h-240zM451 129l327 369l-327 362h239l328 -362l-328 -369h-239z" />
<glyph unicode="&#xe0;" horiz-adv-x="1112" d="M66 303q0 67 20.5 122t55 91t79.5 60.5t92.5 35.5t96.5 11q99 0 181.5 -31.5t131.5 -89.5v133q0 75 -59.5 120.5t-157.5 45.5q-163 0 -289 -117l-98 174q178 156 432 156q89 0 163 -19t136.5 -61t97.5 -117t35 -178v-639h-260v102q-51 -60 -133.5 -93.5t-179.5 -33.5 q-61 0 -120.5 21t-110.5 60t-82 103.5t-31 143.5zM166 1434h237l277 -295h-182zM328 297q0 -67 53.5 -106t132.5 -39q65 0 121.5 22t87.5 64v122q-31 42 -87.5 64t-121.5 22q-80 0 -133 -39.5t-53 -109.5z" />
<glyph unicode="&#xe1;" horiz-adv-x="1112" d="M66 303q0 67 20.5 122t55 91t79.5 60.5t92.5 35.5t96.5 11q99 0 181.5 -31.5t131.5 -89.5v133q0 75 -59.5 120.5t-157.5 45.5q-163 0 -289 -117l-98 174q178 156 432 156q89 0 163 -19t136.5 -61t97.5 -117t35 -178v-639h-260v102q-51 -60 -133.5 -93.5t-179.5 -33.5 q-61 0 -120.5 21t-110.5 60t-82 103.5t-31 143.5zM328 297q0 -67 53.5 -106t132.5 -39q65 0 121.5 22t87.5 64v122q-31 42 -87.5 64t-121.5 22q-80 0 -133 -39.5t-53 -109.5zM420 1139l274 295h240l-332 -295h-182z" />
<glyph unicode="&#xe2;" horiz-adv-x="1112" d="M66 303q0 67 20.5 122t55 91t79.5 60.5t92.5 35.5t96.5 11q99 0 181.5 -31.5t131.5 -89.5v133q0 75 -59.5 120.5t-157.5 45.5q-163 0 -289 -117l-98 174q178 156 432 156q89 0 163 -19t136.5 -61t97.5 -117t35 -178v-639h-260v102q-51 -60 -133.5 -93.5t-179.5 -33.5 q-61 0 -120.5 21t-110.5 60t-82 103.5t-31 143.5zM248 1139l188 295h234l192 -295h-160l-149 182l-145 -182h-160zM328 297q0 -67 53.5 -106t132.5 -39q65 0 121.5 22t87.5 64v122q-31 42 -87.5 64t-121.5 22q-80 0 -133 -39.5t-53 -109.5z" />
<glyph unicode="&#xe3;" horiz-adv-x="1112" d="M66 303q0 67 20.5 122t55 91t79.5 60.5t92.5 35.5t96.5 11q99 0 181.5 -31.5t131.5 -89.5v133q0 75 -59.5 120.5t-157.5 45.5q-163 0 -289 -117l-98 174q178 156 432 156q89 0 163 -19t136.5 -61t97.5 -117t35 -178v-639h-260v102q-51 -60 -133.5 -93.5t-179.5 -33.5 q-61 0 -120.5 21t-110.5 60t-82 103.5t-31 143.5zM217 1147q0 131 57 202.5t164 71.5q46 0 83 -21.5t57.5 -47t46.5 -47t51 -21.5q33 0 53.5 31.5t20.5 93.5h137q0 -131 -56 -202.5t-163 -71.5q-39 0 -70.5 14.5t-52 35t-38.5 40.5t-38 34.5t-41 14.5q-33 0 -53.5 -32 t-20.5 -95h-137zM328 297q0 -67 53.5 -106t132.5 -39q65 0 121.5 22t87.5 64v122q-31 42 -87.5 64t-121.5 22q-80 0 -133 -39.5t-53 -109.5z" />
<glyph unicode="&#xe4;" horiz-adv-x="1112" d="M66 303q0 67 20.5 122t55 91t79.5 60.5t92.5 35.5t96.5 11q99 0 181.5 -31.5t131.5 -89.5v133q0 75 -59.5 120.5t-157.5 45.5q-163 0 -289 -117l-98 174q178 156 432 156q89 0 163 -19t136.5 -61t97.5 -117t35 -178v-639h-260v102q-51 -60 -133.5 -93.5t-179.5 -33.5 q-61 0 -120.5 21t-110.5 60t-82 103.5t-31 143.5zM197 1251q0 57 40.5 97.5t98.5 40.5q57 0 97 -40.5t40 -97.5q0 -58 -40 -98.5t-97 -40.5q-58 0 -98.5 40t-40.5 99zM328 297q0 -67 53.5 -106t132.5 -39q65 0 121.5 22t87.5 64v122q-31 42 -87.5 64t-121.5 22 q-80 0 -133 -39.5t-53 -109.5zM629 1251q0 57 41 97.5t98 40.5t98 -40.5t41 -97.5q0 -58 -41 -98.5t-98 -40.5t-98 40.5t-41 98.5z" />
<glyph unicode="&#xe5;" horiz-adv-x="1112" d="M66 303q0 67 20.5 122t55 91t79.5 60.5t92.5 35.5t96.5 11q99 0 181.5 -31.5t131.5 -89.5v133q0 75 -59.5 120.5t-157.5 45.5q-163 0 -289 -117l-98 174q178 156 432 156q89 0 163 -19t136.5 -61t97.5 -117t35 -178v-639h-260v102q-51 -60 -133.5 -93.5t-179.5 -33.5 q-61 0 -120.5 21t-110.5 60t-82 103.5t-31 143.5zM328 297q0 -67 53.5 -106t132.5 -39q65 0 121.5 22t87.5 64v122q-31 42 -87.5 64t-121.5 22q-80 0 -133 -39.5t-53 -109.5zM340 1303q0 88 63.5 152.5t151.5 64.5q89 0 151 -64.5t62 -152.5q0 -90 -62 -153t-151 -63 q-88 0 -151.5 63.5t-63.5 152.5zM459 1303q0 -38 29 -67.5t67 -29.5q39 0 66.5 29t27.5 68q0 40 -27 68t-67 28q-39 0 -67.5 -28.5t-28.5 -67.5z" />
<glyph unicode="&#xe6;" horiz-adv-x="1781" d="M66 299q0 105 50 179.5t129.5 109.5t178.5 35q103 0 192.5 -31t145.5 -88v133q0 73 -65 118.5t-171 45.5q-171 0 -309 -117l-98 174q88 77 202 116.5t236 39.5q260 0 346 -170q61 80 145.5 125t213.5 45q205 0 332.5 -151t127.5 -394v-57h-698q14 -97 83.5 -160.5 t182.5 -63.5q66 0 133.5 26t110.5 71l117 -172q-71 -65 -176 -101.5t-203 -36.5q-255 0 -381 181q-64 -81 -174 -131t-238 -50q-112 0 -203.5 34t-150.5 109t-59 181zM328 313q0 -64 55.5 -98.5t140.5 -34.5q95 0 166.5 52.5t71.5 113.5v12q-36 41 -99 64.5t-133 23.5 q-89 0 -145.5 -34.5t-56.5 -98.5zM1020 588h450q-2 38 -15 74.5t-38.5 70t-70 54t-101.5 20.5q-101 0 -158.5 -67t-66.5 -152z" />
<glyph unicode="&#xe7;" horiz-adv-x="1021" d="M66 496q0 227 147.5 372.5t376.5 145.5q260 0 391 -178l-170 -160q-71 106 -209 106q-119 0 -193.5 -79t-74.5 -207q0 -129 74.5 -209t193.5 -80q134 0 209 106l170 -157q-50 -71 -134 -120t-202 -59l-33 -77q33 20 74 20q58 0 97.5 -40t39.5 -103q0 -79 -65.5 -126.5 t-161.5 -47.5q-70 0 -130.5 18.5t-94.5 46.5l51 105q78 -60 166 -60q44 0 75 18t31 50q0 53 -59 53q-37 0 -66 -29l-94 54l43 121q-202 22 -327 163.5t-125 352.5z" />
<glyph unicode="&#xe8;" horiz-adv-x="1132" d="M66 496q0 143 64.5 261t182.5 187.5t265 69.5q221 0 358 -151t137 -394v-57h-735q13 -99 88.5 -164.5t196.5 -65.5q66 0 142 27.5t122 71.5l114 -168q-72 -66 -180.5 -102t-226.5 -36q-229 0 -378.5 143.5t-149.5 377.5zM195 1434h237l277 -295h-183zM334 588h487 q-2 38 -16.5 74.5t-42 70t-75.5 54t-109 20.5q-58 0 -104.5 -20t-74.5 -53t-44 -70t-21 -76z" />
<glyph unicode="&#xe9;" horiz-adv-x="1132" d="M66 496q0 143 64.5 261t182.5 187.5t265 69.5q221 0 358 -151t137 -394v-57h-735q13 -99 88.5 -164.5t196.5 -65.5q66 0 142 27.5t122 71.5l114 -168q-72 -66 -180.5 -102t-226.5 -36q-229 0 -378.5 143.5t-149.5 377.5zM334 588h487q-2 38 -16.5 74.5t-42 70t-75.5 54 t-109 20.5q-58 0 -104.5 -20t-74.5 -53t-44 -70t-21 -76zM449 1139l274 295h240l-332 -295h-182z" />
<glyph unicode="&#xea;" horiz-adv-x="1132" d="M66 496q0 143 64.5 261t182.5 187.5t265 69.5q221 0 358 -151t137 -394v-57h-735q13 -99 88.5 -164.5t196.5 -65.5q66 0 142 27.5t122 71.5l114 -168q-72 -66 -180.5 -102t-226.5 -36q-229 0 -378.5 143.5t-149.5 377.5zM272 1139l189 295h233l193 -295h-160l-149 182 l-146 -182h-160zM334 588h487q-2 38 -16.5 74.5t-42 70t-75.5 54t-109 20.5q-58 0 -104.5 -20t-74.5 -53t-44 -70t-21 -76z" />
<glyph unicode="&#xeb;" horiz-adv-x="1132" d="M66 496q0 143 64.5 261t182.5 187.5t265 69.5q221 0 358 -151t137 -394v-57h-735q13 -99 88.5 -164.5t196.5 -65.5q66 0 142 27.5t122 71.5l114 -168q-72 -66 -180.5 -102t-226.5 -36q-229 0 -378.5 143.5t-149.5 377.5zM225 1251q0 57 41 97.5t99 40.5q57 0 97 -40.5 t40 -97.5q0 -58 -40 -98.5t-97 -40.5q-59 0 -99.5 40.5t-40.5 98.5zM334 588h487q-2 38 -16.5 74.5t-42 70t-75.5 54t-109 20.5q-58 0 -104.5 -20t-74.5 -53t-44 -70t-21 -76zM657 1251q0 57 41.5 97.5t98.5 40.5t98 -40.5t41 -97.5q0 -58 -41 -98.5t-98 -40.5t-98.5 40.5 t-41.5 98.5z" />
<glyph unicode="&#xec;" d="M-125 1434h238l276 -295h-182zM129 0v989h260v-989h-260z" />
<glyph unicode="&#xed;" d="M129 0v989h260v-989h-260zM129 1139l274 295h240l-332 -295h-182z" />
<glyph unicode="&#xee;" d="M-49 1139l188 295h234l192 -295h-159l-150 182l-145 -182h-160zM129 0v989h260v-989h-260z" />
<glyph unicode="&#xef;" d="M-96 1251q0 57 40.5 97.5t98.5 40.5q57 0 97 -40.5t40 -97.5q0 -58 -40 -98.5t-97 -40.5q-59 0 -99 40t-40 99zM129 0v989h260v-989h-260zM336 1251q0 57 41 97.5t98 40.5t98 -40.5t41 -97.5q0 -58 -41 -98.5t-98 -40.5t-98 40.5t-41 98.5z" />
<glyph unicode="&#xf0;" horiz-adv-x="1175" d="M66 459q0 211 125 347t313 136q207 0 327 -190q-73 167 -321 340l-299 -131l-51 122l219 97q-24 16 -69 42t-56 33l141 211q155 -95 252 -170l211 93l51 -119l-149 -66q352 -313 352 -688q0 -243 -140.5 -392t-383.5 -149q-234 0 -378 135.5t-144 348.5zM336 459 q0 -107 67.5 -179.5t184.5 -72.5t185.5 72.5t68.5 179.5t-68.5 179.5t-185.5 72.5t-184.5 -72.5t-67.5 -179.5z" />
<glyph unicode="&#xf1;" horiz-adv-x="1185" d="M129 0v989h260v-129q54 65 144 109.5t202 44.5q159 0 240.5 -83.5t81.5 -232.5v-698h-260v598q0 98 -47.5 141t-135.5 43q-71 0 -130 -33.5t-95 -82.5v-666h-260zM260 1147q0 131 57 202.5t164 71.5q46 0 83 -21.5t57.5 -47t46.5 -47t51 -21.5q33 0 53.5 31.5t20.5 93.5 h137q0 -131 -56 -202.5t-163 -71.5q-39 0 -70.5 14.5t-52 35t-38.5 40.5t-38 34.5t-41 14.5q-33 0 -53.5 -32t-20.5 -95h-137z" />
<glyph unicode="&#xf2;" horiz-adv-x="1175" d="M66 496q0 142 61.5 258.5t182 188t278.5 71.5q159 0 280 -71.5t182.5 -188t61.5 -258.5q0 -106 -36.5 -200.5t-102 -166t-165.5 -113t-220 -41.5q-158 0 -278.5 71.5t-182 189t-61.5 260.5zM205 1434h237l277 -295h-182zM336 496q0 -122 67.5 -205.5t184.5 -83.5 t185.5 83.5t68.5 205.5q0 121 -68.5 203.5t-185.5 82.5t-184.5 -82.5t-67.5 -203.5z" />
<glyph unicode="&#xf3;" horiz-adv-x="1175" d="M66 496q0 142 61.5 258.5t182 188t278.5 71.5q159 0 280 -71.5t182.5 -188t61.5 -258.5q0 -106 -36.5 -200.5t-102 -166t-165.5 -113t-220 -41.5q-158 0 -278.5 71.5t-182 189t-61.5 260.5zM336 496q0 -122 67.5 -205.5t184.5 -83.5t185.5 83.5t68.5 205.5 q0 121 -68.5 203.5t-185.5 82.5t-184.5 -82.5t-67.5 -203.5zM459 1139l274 295h240l-332 -295h-182z" />
<glyph unicode="&#xf4;" horiz-adv-x="1175" d="M66 496q0 142 61.5 258.5t182 188t278.5 71.5q159 0 280 -71.5t182.5 -188t61.5 -258.5q0 -106 -36.5 -200.5t-102 -166t-165.5 -113t-220 -41.5q-158 0 -278.5 71.5t-182 189t-61.5 260.5zM281 1139l188 295h233l193 -295h-160l-149 182l-146 -182h-159zM336 496 q0 -122 67.5 -205.5t184.5 -83.5t185.5 83.5t68.5 205.5q0 121 -68.5 203.5t-185.5 82.5t-184.5 -82.5t-67.5 -203.5z" />
<glyph unicode="&#xf5;" horiz-adv-x="1175" d="M66 496q0 142 61.5 258.5t182 188t278.5 71.5q159 0 280 -71.5t182.5 -188t61.5 -258.5q0 -106 -36.5 -200.5t-102 -166t-165.5 -113t-220 -41.5q-158 0 -278.5 71.5t-182 189t-61.5 260.5zM254 1147q0 131 57 202.5t164 71.5q46 0 83 -21.5t57.5 -47t46.5 -47t51 -21.5 q33 0 53 31.5t20 93.5h138q0 -131 -56 -202.5t-163 -71.5q-39 0 -70.5 14.5t-52 35t-38.5 40.5t-38 34.5t-41 14.5q-33 0 -53.5 -32t-20.5 -95h-137zM336 496q0 -122 67.5 -205.5t184.5 -83.5t185.5 83.5t68.5 205.5q0 121 -68.5 203.5t-185.5 82.5t-184.5 -82.5 t-67.5 -203.5z" />
<glyph unicode="&#xf6;" horiz-adv-x="1175" d="M66 496q0 142 61.5 258.5t182 188t278.5 71.5q159 0 280 -71.5t182.5 -188t61.5 -258.5q0 -106 -36.5 -200.5t-102 -166t-165.5 -113t-220 -41.5q-158 0 -278.5 71.5t-182 189t-61.5 260.5zM233 1251q0 57 41 97.5t99 40.5q57 0 97 -40.5t40 -97.5q0 -58 -40 -98.5 t-97 -40.5q-59 0 -99.5 40.5t-40.5 98.5zM336 496q0 -122 67.5 -205.5t184.5 -83.5t185.5 83.5t68.5 205.5q0 121 -68.5 203.5t-185.5 82.5t-184.5 -82.5t-67.5 -203.5zM666 1251q0 57 41 97.5t98 40.5t98 -40.5t41 -97.5q0 -58 -41 -98.5t-98 -40.5t-98 40.5t-41 98.5z" />
<glyph unicode="&#xf8;" horiz-adv-x="1175" d="M66 496q0 142 61.5 258.5t182 188t278.5 71.5q165 0 289 -78l45 53h163l-112 -131q139 -145 139 -362q0 -106 -36.5 -200.5t-102 -166t-165.5 -113t-220 -41.5q-173 0 -297 82l-49 -57h-160l117 137q-133 145 -133 359zM336 496q0 -88 35 -156l346 408q-55 34 -129 34 q-117 0 -184.5 -82.5t-67.5 -203.5zM451 246q53 -39 137 -39q117 0 185.5 83.5t68.5 205.5q0 90 -41 161z" />
<glyph unicode="&#xf9;" horiz-adv-x="1185" d="M129 287v702h260v-600q0 -98 47 -140t135 -42q70 0 129 32t97 80v670h260v-989h-260v125q-58 -65 -146.5 -107.5t-201.5 -42.5q-159 0 -239.5 82t-80.5 230zM209 1434h237l277 -295h-182z" />
<glyph unicode="&#xfa;" horiz-adv-x="1185" d="M129 287v702h260v-600q0 -98 47 -140t135 -42q70 0 129 32t97 80v670h260v-989h-260v125q-58 -65 -146.5 -107.5t-201.5 -42.5q-159 0 -239.5 82t-80.5 230zM461 1139l274 295h240l-332 -295h-182z" />
<glyph unicode="&#xfb;" horiz-adv-x="1185" d="M129 287v702h260v-600q0 -98 47 -140t135 -42q70 0 129 32t97 80v670h260v-989h-260v125q-58 -65 -146.5 -107.5t-201.5 -42.5q-159 0 -239.5 82t-80.5 230zM287 1139l188 295h234l192 -295h-160l-149 182l-146 -182h-159z" />
<glyph unicode="&#xfc;" horiz-adv-x="1185" d="M129 287v702h260v-600q0 -98 47 -140t135 -42q70 0 129 32t97 80v670h260v-989h-260v125q-58 -65 -146.5 -107.5t-201.5 -42.5q-159 0 -239.5 82t-80.5 230zM238 1251q0 57 40.5 97.5t98.5 40.5q57 0 97 -40.5t40 -97.5q0 -58 -40 -98.5t-97 -40.5q-59 0 -99 40t-40 99z M670 1251q0 57 41 97.5t98 40.5t98 -40.5t41 -97.5q0 -58 -41 -98.5t-98 -40.5t-98 40.5t-41 98.5z" />
<glyph unicode="&#xfd;" horiz-adv-x="1050" d="M-12 989h278l258 -688l258 688h281l-465 -1151q-52 -131 -144 -183.5t-231 -55.5q-71 0 -129 14l39 233q37 -16 82 -16q103 0 137 72l37 84zM393 1139l275 295h239l-332 -295h-182z" />
<glyph unicode="&#xfe;" horiz-adv-x="1193" d="M129 -377v1743h260v-502q119 150 305 150q195 0 317 -138t122 -380t-122 -381.5t-317 -139.5q-186 0 -305 152v-504h-260zM389 319q33 -47 97 -79.5t126 -32.5q112 0 181 80t69 209q0 128 -69 207t-181 79q-63 0 -127 -32.5t-96 -79.5v-351z" />
<glyph unicode="&#xff;" horiz-adv-x="1050" d="M-12 989h278l258 -688l258 688h281l-465 -1151q-52 -131 -144 -183.5t-231 -55.5q-71 0 -129 14l39 233q37 -16 82 -16q103 0 137 72l37 84zM170 1251q0 57 40.5 97.5t98.5 40.5q57 0 97 -40.5t40 -97.5q0 -58 -40 -98.5t-97 -40.5q-59 0 -99 40t-40 99zM602 1251 q0 57 41 97.5t98 40.5t98.5 -40.5t41.5 -97.5q0 -58 -41.5 -98.5t-98.5 -40.5t-98 40.5t-41 98.5z" />
<glyph unicode="&#x131;" d="M129 0v989h260v-989h-260z" />
<glyph unicode="&#x153;" horiz-adv-x="1906" d="M66 496q0 142 61.5 258.5t182 188t278.5 71.5q73 0 136.5 -20t111 -56.5t78 -69t61.5 -75.5q140 221 379 221q221 0 357 -151t136 -394v-57h-733q14 -97 89 -163.5t196 -66.5q69 0 141 26.5t121 70.5l117 -166q-73 -66 -182 -102t-226 -36q-78 0 -143.5 19.5t-113 55 t-79 68.5t-61.5 77q-30 -42 -60.5 -75t-77.5 -69t-110.5 -56t-136.5 -20q-158 0 -278.5 71.5t-182 189t-61.5 260.5zM336 496q0 -128 69.5 -209.5t182.5 -81.5q115 0 184.5 81t69.5 210q0 127 -69.5 206.5t-184.5 79.5q-113 0 -182.5 -79.5t-69.5 -206.5zM1110 588h487 q-2 38 -17 74.5t-42.5 70t-76 54t-109.5 20.5q-57 0 -103.5 -20t-74.5 -53t-44 -70t-20 -76z" />
<glyph unicode="&#x192;" horiz-adv-x="929" d="M16 -330l181 817h-111v230h160l76 340q32 148 144 238.5t261 90.5q158 0 242 -88l-111 -211q-40 43 -96 43q-57 0 -99 -36t-57 -101l-61 -276h231v-230h-282l-181 -817h-297z" />
<glyph unicode="&#x2c6;" horiz-adv-x="614" d="M0 1139l188 295h234l192 -295h-159l-150 182l-145 -182h-160z" />
<glyph unicode="&#x2da;" horiz-adv-x="428" d="M0 1303q0 88 63.5 152.5t151.5 64.5q89 0 151 -64.5t62 -152.5q0 -90 -62 -153t-151 -63q-88 0 -151.5 63.5t-63.5 152.5zM119 1303q0 -38 29 -67.5t67 -29.5q39 0 66.5 29t27.5 68q0 40 -27 68t-67 28q-39 0 -67.5 -28.5t-28.5 -67.5z" />
<glyph unicode="&#x2dc;" horiz-adv-x="669" d="M0 1147q0 131 57 202.5t164 71.5q46 0 83 -21.5t57.5 -47t46.5 -47t51 -21.5q33 0 53 31.5t20 93.5h138q0 -131 -56 -202.5t-163 -71.5q-39 0 -70.5 14.5t-52 35t-38.5 40.5t-38 34.5t-41 14.5q-33 0 -53.5 -32t-20.5 -95h-137z" />
<glyph unicode="&#x401;" horiz-adv-x="1193" d="M135 0v1366h967v-256h-676v-289h661v-256h-661v-309h676v-256h-967zM262 1593q0 57 40.5 97.5t98.5 40.5q57 0 97.5 -40.5t40.5 -97.5q0 -58 -40.5 -98.5t-97.5 -40.5q-59 0 -99 40t-40 99zM694 1593q0 57 41.5 97.5t98.5 40.5t98 -40.5t41 -97.5q0 -58 -41 -98.5 t-98 -40.5t-98.5 40.5t-41.5 98.5z" />
<glyph unicode="&#x402;" horiz-adv-x="1589" d="M51 1110v256h1090v-256h-398v-289q143 45 293 45q127 0 226 -35t160 -96.5t92.5 -141.5t31.5 -175v-17q0 -200 -138 -313t-355 -113v252q93 0 145.5 47.5t52.5 126.5v17q0 92 -65 142t-185 50q-141 0 -258 -45v-565h-292v1110h-400z" />
<glyph unicode="&#x403;" horiz-adv-x="1169" d="M135 0v1366h967v-256h-676v-1110h-291zM461 1481l274 295h240l-332 -295h-182z" />
<glyph unicode="&#x404;" horiz-adv-x="1406" d="M70 682q0 155 56 287.5t153.5 224t231.5 143.5t286 52q108 0 201.5 -27.5t162 -76.5t118.5 -105.5t89 -124.5l-250 -123q-44 86 -132 142t-193 56q-153 0 -261 -84t-147 -225h649v-256h-653q33 -150 143 -241t269 -91q106 0 193.5 55.5t131.5 143.5l250 -121 q-194 -336 -571 -336q-152 0 -286 52t-231.5 143.5t-153.5 224t-56 287.5z" />
<glyph unicode="&#x405;" horiz-adv-x="1228" d="M43 193l158 221q79 -82 190 -133.5t244 -51.5q114 0 175.5 44.5t61.5 107.5q0 38 -27 66.5t-72.5 46.5t-104.5 33t-124 30.5t-130 35t-124 51t-104.5 73.5t-72.5 107t-27 147q0 176 141.5 295.5t376.5 119.5q328 0 533 -190l-162 -213q-81 74 -185 112t-212 38 q-92 0 -143.5 -37.5t-51.5 -100.5q0 -38 33.5 -66.5t89 -44t126 -34t143.5 -36t143.5 -50t126 -75t89 -113.5t33.5 -162q0 -196 -139.5 -317.5t-406.5 -121.5q-363 0 -578 218z" />
<glyph unicode="&#x406;" horiz-adv-x="561" d="M135 0v1366h291v-1366h-291z" />
<glyph unicode="&#x407;" horiz-adv-x="561" d="M-74 1593q0 57 41 97.5t99 40.5q57 0 97 -40.5t40 -97.5q0 -58 -40 -98.5t-97 -40.5q-59 0 -99.5 40.5t-40.5 98.5zM135 0v1366h291v-1366h-291zM358 1593q0 57 41.5 97.5t98.5 40.5t98 -40.5t41 -97.5q0 -58 -41 -98.5t-98 -40.5t-98.5 40.5t-41.5 98.5z" />
<glyph unicode="&#x408;" horiz-adv-x="995" d="M12 109l127 223q103 -99 217 -99q97 0 155 60t58 160v913h291v-917q0 -158 -62.5 -266t-168.5 -158t-250 -50q-230 0 -367 134z" />
<glyph unicode="&#x409;" horiz-adv-x="2213" d="M53 -25v258q55 0 93 17.5t71.5 64.5t56.5 133.5t39 219.5l80 698h971v-485h346q108 0 196 -35.5t145.5 -96t88.5 -140t31 -169.5q0 -91 -31 -170.5t-88 -139.5t-145.5 -95t-196.5 -35h-639v1110h-416l-53 -463q-19 -166 -56 -287t-84.5 -194.5t-114.5 -117t-135.5 -58.5 t-158.5 -15zM1364 256h307q88 0 144.5 49.5t56.5 134.5q0 83 -56.5 134t-144.5 51h-307v-369z" />
<glyph unicode="&#x40a;" horiz-adv-x="2213" d="M135 0v1366h291v-537h645v537h293v-537h373q202 0 318 -118.5t116 -294.5q0 -178 -115.5 -297t-318.5 -119h-666v573h-645v-573h-291zM1364 256h336q75 0 123.5 44t48.5 116t-48.5 114.5t-123.5 42.5h-336v-317z" />
<glyph unicode="&#x40b;" horiz-adv-x="1652" d="M51 1110v256h1090v-256h-398v-289q143 45 293 45q253 0 381.5 -135t128.5 -369v-362h-295v362q0 129 -63.5 188.5t-186.5 59.5q-141 0 -258 -45v-565h-292v1110h-400z" />
<glyph unicode="&#x40c;" horiz-adv-x="1302" d="M135 0v1366h291v-610l483 610h359l-543 -641l580 -725h-359l-414 547l-106 -127v-420h-291zM537 1481l274 295h240l-332 -295h-182z" />
<glyph unicode="&#x40e;" horiz-adv-x="1320" d="M-8 1366h330l337 -725l340 725h330l-563 -1104q-34 -67 -72 -116t-91 -89t-124 -61t-160 -21q-91 0 -176.5 28t-132.5 71l111 233q89 -74 176 -74q73 0 115.5 32t83.5 110zM301 1610l115 96q90 -127 246 -127q153 0 243 127l115 -96q-62 -84 -155.5 -132t-202.5 -48 q-108 0 -202.5 48t-158.5 132z" />
<glyph unicode="&#x40f;" horiz-adv-x="1497" d="M135 0v1366h291v-1110h645v1110h293v-1366h-469v-260h-291v260h-469z" />
<glyph unicode="&#x410;" horiz-adv-x="1400" d="M-10 0l528 1366h365l526 -1366h-332l-84 231h-585l-86 -231h-332zM487 487h426l-213 588z" />
<glyph unicode="&#x411;" horiz-adv-x="1277" d="M135 0v1366h998v-256h-707v-242h354q141 0 245.5 -60t156 -157t51.5 -217t-51 -217t-155.5 -157t-246.5 -60h-645zM426 256h315q86 0 140.5 48.5t54.5 129.5q0 82 -54.5 130t-140.5 48h-315v-356z" />
<glyph unicode="&#x412;" horiz-adv-x="1357" d="M135 0v1366h719q94 0 170.5 -28.5t124 -77.5t73 -111t25.5 -131q0 -124 -67 -208t-168 -105q110 -17 186 -113t76 -223q0 -161 -104.5 -265t-292.5 -104h-742zM426 252h375q83 0 129.5 42t46.5 116q0 68 -46.5 113.5t-129.5 45.5h-375v-317zM426 819h365q73 0 116 41.5 t43 106.5q0 66 -43.5 107.5t-115.5 41.5h-365v-297z" />
<glyph unicode="&#x413;" horiz-adv-x="1169" d="M135 0v1366h967v-256h-676v-1110h-291z" />
<glyph unicode="&#x414;" horiz-adv-x="1521" d="M53 233q58 7 94.5 25t70.5 63.5t56.5 129.5t38.5 217l80 698h971v-1110h123v-508h-291v252h-852v-252h-291v485zM436 256h635v854h-416l-53 -463q-29 -263 -166 -391z" />
<glyph unicode="&#x415;" horiz-adv-x="1193" d="M135 0v1366h967v-256h-676v-289h661v-256h-661v-309h676v-256h-967z" />
<glyph unicode="&#x416;" horiz-adv-x="1947" d="M0 0l578 725l-543 641h358l434 -549v549h293v-549l432 549h361l-543 -641l578 -725h-357l-413 547l-58 -70v-477h-293v477l-57 70l-414 -547h-356z" />
<glyph unicode="&#x417;" horiz-adv-x="1249" d="M41 195l152 194q68 -71 181.5 -113.5t217.5 -42.5q133 0 209 48.5t76 126.5q0 81 -73.5 119t-228.5 38h-276v256h276q127 0 203 37t76 109q0 78 -78 119.5t-201 41.5q-102 0 -200.5 -36.5t-169.5 -104.5l-146 182q87 98 229.5 157.5t315.5 59.5q242 0 391.5 -100.5 t149.5 -269.5q0 -122 -87.5 -205.5t-209.5 -105.5q54 -5 108 -28.5t101.5 -63t77.5 -101.5t30 -135q0 -116 -72 -208t-200 -143t-289 -51q-183 0 -334 62t-229 158z" />
<glyph unicode="&#x418;" horiz-adv-x="1492" d="M135 0v1366h291v-883l633 883h299v-1366h-291v915l-651 -915h-281z" />
<glyph unicode="&#x419;" horiz-adv-x="1492" d="M135 0v1366h291v-883l633 883h299v-1366h-291v915l-651 -915h-281zM387 1610l115 96q90 -127 246 -127q153 0 243 127l115 -96q-62 -84 -155.5 -132t-202.5 -48q-108 0 -202.5 48t-158.5 132z" />
<glyph unicode="&#x41a;" horiz-adv-x="1302" d="M135 0v1366h291v-610l483 610h359l-543 -641l580 -725h-359l-414 547l-106 -127v-420h-291z" />
<glyph unicode="&#x41b;" horiz-adv-x="1497" d="M53 -25v258q55 0 93 17.5t71.5 64.5t56.5 133.5t39 219.5l80 698h971v-1366h-293v1110h-416l-53 -463q-19 -166 -56 -287t-84.5 -194.5t-114.5 -117t-135.5 -58.5t-158.5 -15z" />
<glyph unicode="&#x41c;" horiz-adv-x="1751" d="M135 0v1366h408l331 -825l332 825h410v-1366h-293v956l-385 -956h-127l-385 956v-956h-291z" />
<glyph unicode="&#x41d;" horiz-adv-x="1497" d="M135 0v1366h291v-537h645v537h293v-1366h-293v573h-645v-573h-291z" />
<glyph unicode="&#x41e;" horiz-adv-x="1566" d="M70 682q0 152 53.5 284t147.5 224.5t226.5 145.5t284.5 53q205 0 368 -90t255 -252t92 -365t-92 -365t-255 -252t-368 -90q-152 0 -284.5 53t-226.5 145.5t-147.5 224.5t-53.5 284zM369 682q0 -194 113.5 -321.5t299.5 -127.5t301 127.5t115 321.5q0 195 -115 321.5 t-301 126.5t-299.5 -126.5t-113.5 -321.5z" />
<glyph unicode="&#x41f;" horiz-adv-x="1497" d="M135 0v1366h1229v-1366h-293v1110h-645v-1110h-291z" />
<glyph unicode="&#x420;" horiz-adv-x="1277" d="M135 0v1366h639q108 0 196.5 -35t145 -95t87 -139.5t30.5 -170.5q0 -90 -30.5 -169.5t-87.5 -140t-145 -96t-196 -35.5h-348v-485h-291zM426 741h309q88 0 144.5 51t56.5 134q0 85 -56.5 134.5t-144.5 49.5h-309v-369z" />
<glyph unicode="&#x421;" horiz-adv-x="1406" d="M70 682q0 155 56 287.5t153.5 224t231.5 143.5t286 52q108 0 201.5 -27.5t162 -76.5t118.5 -105.5t89 -124.5l-250 -123q-44 86 -131 142t-190 56q-186 0 -307 -127t-121 -321t121 -321.5t307 -127.5q103 0 190 56t131 143l250 -121q-194 -336 -571 -336q-152 0 -286 52 t-231.5 143.5t-153.5 224t-56 287.5z" />
<glyph unicode="&#x422;" horiz-adv-x="1191" d="M51 1110v256h1090v-256h-398v-1110h-292v1110h-400z" />
<glyph unicode="&#x423;" horiz-adv-x="1320" d="M-8 1366h330l337 -725l340 725h330l-563 -1104q-34 -67 -72 -116t-91 -89t-124 -61t-160 -21q-91 0 -176.5 28t-132.5 71l111 233q89 -74 176 -74q73 0 115.5 32t83.5 110z" />
<glyph unicode="&#x424;" horiz-adv-x="1751" d="M70 682q0 233 173.5 375t485.5 170v139h291v-139q313 -28 486 -169.5t173 -375.5q0 -235 -173.5 -377t-485.5 -168v-137h-291v137q-312 26 -485.5 168t-173.5 377zM369 682q0 -117 92 -190t268 -95v570q-176 -22 -268 -95.5t-92 -189.5zM1020 397q176 20 269 93.5 t93 191.5q0 117 -92.5 190t-269.5 95v-570z" />
<glyph unicode="&#x425;" horiz-adv-x="1368" d="M-6 0l495 700l-464 666h346l313 -467l309 467h350l-464 -664l495 -702h-348l-342 500l-344 -500h-346z" />
<glyph unicode="&#x426;" horiz-adv-x="1521" d="M135 0v1366h291v-1110h645v1110h293v-1110h123v-508h-291v252h-1061z" />
<glyph unicode="&#x427;" horiz-adv-x="1329" d="M100 983v383h293v-383q0 -130 63.5 -189t186.5 -59q148 0 260 45v586h291v-1366h-291v524q-147 -45 -295 -45q-253 0 -380.5 134.5t-127.5 369.5z" />
<glyph unicode="&#x428;" horiz-adv-x="2013" d="M135 0v1366h291v-1110h434v1110h293v-1110h432v1110h293v-1366h-1743z" />
<glyph unicode="&#x429;" horiz-adv-x="2035" d="M135 0v1366h291v-1110h434v1110h293v-1110h432v1110h293v-1110h125v-508h-293v252h-1575z" />
<glyph unicode="&#x42a;" horiz-adv-x="1593" d="M51 1110v256h692v-485h347q143 0 249 -61t158.5 -160t52.5 -220q0 -122 -52 -220.5t-158 -159t-250 -60.5h-639v1110h-400zM743 256h308q88 0 144 49.5t56 134.5q0 84 -56 134.5t-144 50.5h-308v-369z" />
<glyph unicode="&#x42b;" horiz-adv-x="1775" d="M135 0v1366h291v-485h348q108 0 196 -35.5t145 -96t87.5 -140t30.5 -169.5q0 -91 -30.5 -170.5t-87 -139.5t-145 -95t-196.5 -35h-639zM426 256h309q88 0 144.5 49.5t56.5 134.5q0 83 -56.5 134t-144.5 51h-309v-369zM1348 0v1366h292v-1366h-292z" />
<glyph unicode="&#x42c;" horiz-adv-x="1277" d="M135 0v1366h291v-485h348q108 0 196 -35.5t145 -96t87.5 -140t30.5 -169.5q0 -91 -30.5 -170.5t-87 -139.5t-145 -95t-196.5 -35h-639zM426 256h309q88 0 144.5 49.5t56.5 134.5q0 83 -56.5 134t-144.5 51h-309v-369z" />
<glyph unicode="&#x42d;" horiz-adv-x="1406" d="M39 311l250 121q44 -88 131.5 -143.5t193.5 -55.5q156 0 267 91t145 241h-655v256h649q-39 140 -147.5 224.5t-258.5 84.5q-105 0 -193 -56t-132 -142l-250 123q189 334 569 334q205 0 370.5 -88.5t261 -250.5t95.5 -368t-95.5 -368t-261 -250.5t-370.5 -88.5 q-87 0 -165 19t-137.5 50t-111.5 75.5t-88 91t-67 100.5z" />
<glyph unicode="&#x42e;" horiz-adv-x="2136" d="M135 0v1366h291v-537h225q48 251 239.5 405.5t461.5 154.5q204 0 367 -90.5t254 -252t91 -364.5t-91 -364.5t-254 -252t-367 -90.5q-281 0 -475.5 165.5t-231.5 432.5h-219v-573h-291zM936 682q0 -194 114.5 -321.5t301.5 -127.5q186 0 300.5 127.5t114.5 321.5 q0 195 -114.5 321.5t-300.5 126.5q-188 0 -302 -126.5t-114 -321.5z" />
<glyph unicode="&#x42f;" horiz-adv-x="1316" d="M76 0l307 520q-58 14 -109.5 45t-95 79.5t-69 121.5t-25.5 160q0 194 124.5 317t334.5 123h639v-1366h-291v485h-211l-270 -485h-334zM381 926q0 -85 57.5 -135t147.5 -50h305v369h-305q-90 0 -147.5 -49.5t-57.5 -134.5z" />
<glyph unicode="&#x430;" horiz-adv-x="1112" d="M66 303q0 67 20.5 122t55 91t79.5 60.5t92.5 35.5t96.5 11q99 0 181.5 -31.5t131.5 -89.5v133q0 75 -59.5 120.5t-157.5 45.5q-163 0 -289 -117l-98 174q178 156 432 156q89 0 163 -19t136.5 -61t97.5 -117t35 -178v-639h-260v102q-51 -60 -133.5 -93.5t-179.5 -33.5 q-61 0 -120.5 21t-110.5 60t-82 103.5t-31 143.5zM328 297q0 -67 53.5 -106t132.5 -39q65 0 121.5 22t87.5 64v122q-31 42 -87.5 64t-121.5 22q-80 0 -133 -39.5t-53 -109.5z" />
<glyph unicode="&#x431;" horiz-adv-x="1181" d="M66 541q0 354 127 530.5t387 210.5q122 18 172.5 37.5t50.5 46.5h270q0 -215 -411 -266q-308 -41 -357 -248q60 78 147.5 120t190.5 42t191.5 -42t148.5 -113t93.5 -164.5t33.5 -196.5q0 -141 -60.5 -259t-181 -191t-280.5 -73q-161 0 -280.5 74.5t-180.5 202t-61 289.5z M336 500q0 -125 67.5 -209t184.5 -84t185.5 84t68.5 209q0 118 -68.5 200t-185.5 82t-184.5 -82t-67.5 -200z" />
<glyph unicode="&#x432;" horiz-adv-x="1200" d="M129 0v989h627q144 0 223.5 -74t79.5 -180q0 -85 -47.5 -144.5t-120.5 -80.5q82 -19 135 -86t53 -156q0 -117 -80.5 -192.5t-224.5 -75.5h-645zM389 213h322q47 0 74.5 24.5t27.5 67.5q0 39 -27 65.5t-75 26.5h-322v-184zM389 610h313q42 0 67.5 23.5t25.5 58.5 q0 37 -25.5 60.5t-67.5 23.5h-313v-166z" />
<glyph unicode="&#x433;" horiz-adv-x="929" d="M129 0v989h764v-227h-504v-762h-260z" />
<glyph unicode="&#x434;" horiz-adv-x="1202" d="M37 217q45 8 71 29t49 84.5t38 179.5l63 479h801v-762h108v-479h-260v252h-608v-252h-262v469zM340 227h459v535h-314l-30 -268q-21 -179 -115 -267z" />
<glyph unicode="&#x435;" horiz-adv-x="1132" d="M66 496q0 143 64.5 261t182.5 187.5t265 69.5q221 0 358 -151t137 -394v-57h-735q13 -99 88.5 -164.5t196.5 -65.5q66 0 142 27.5t122 71.5l114 -168q-72 -66 -180.5 -102t-226.5 -36q-229 0 -378.5 143.5t-149.5 377.5zM334 588h487q-2 38 -16.5 74.5t-42 70t-75.5 54 t-109 20.5q-58 0 -104.5 -20t-74.5 -53t-44 -70t-21 -76z" />
<glyph unicode="&#x436;" horiz-adv-x="1536" d="M2 0l401 541l-389 448h320l303 -358v358h262v-358l303 358h320l-389 -448l401 -541h-324l-264 381l-47 -51v-330h-262v330l-47 51l-264 -381h-324z" />
<glyph unicode="&#x437;" horiz-adv-x="1032" d="M29 133l118 162q66 -56 157 -84.5t185 -28.5q98 0 151.5 29.5t53.5 77.5q0 110 -221 110h-203v201h203q203 0 203 107q0 44 -55.5 72t-143.5 28q-191 0 -307 -113l-127 154q76 76 183 120t237 44q229 1 356 -71.5t127 -199.5q0 -90 -76.5 -153.5t-181.5 -79.5 q47 -3 95 -19.5t89.5 -44.5t68 -73t26.5 -99q0 -132 -129.5 -214.5t-348.5 -82.5q-149 0 -267 42.5t-193 115.5z" />
<glyph unicode="&#x438;" horiz-adv-x="1187" d="M129 0v989h260v-598l408 598h262v-989h-260v621l-420 -621h-250z" />
<glyph unicode="&#x439;" horiz-adv-x="1187" d="M129 0v989h260v-598l408 598h262v-989h-260v621l-420 -621h-250zM233 1268l115 96q90 -127 246 -127q154 0 244 127l114 -96q-63 -85 -156 -133t-202 -48q-107 0 -202 48.5t-159 132.5z" />
<glyph unicode="&#x43a;" horiz-adv-x="1095" d="M129 0v989h260v-440l375 440h319l-391 -448l404 -541h-326l-262 381l-119 -127v-254h-260z" />
<glyph unicode="&#x43b;" horiz-adv-x="1187" d="M37 -25v213q61 0 98 73t60 249l63 479h801v-989h-260v762h-314l-32 -283q-31 -259 -130 -381.5t-286 -122.5z" />
<glyph unicode="&#x43c;" horiz-adv-x="1427" d="M129 0v989h342l244 -590l239 590h344v-989h-260v643l-264 -643h-119l-266 643v-643h-260z" />
<glyph unicode="&#x43d;" horiz-adv-x="1187" d="M129 0v989h260v-366h410v366h260v-989h-260v395h-410v-395h-260z" />
<glyph unicode="&#x43e;" horiz-adv-x="1175" d="M66 496q0 142 61.5 258.5t182 188t278.5 71.5q159 0 280 -71.5t182.5 -188t61.5 -258.5q0 -106 -36.5 -200.5t-102 -166t-165.5 -113t-220 -41.5q-158 0 -278.5 71.5t-182 189t-61.5 260.5zM336 496q0 -122 67.5 -205.5t184.5 -83.5t185.5 83.5t68.5 205.5 q0 121 -68.5 203.5t-185.5 82.5t-184.5 -82.5t-67.5 -203.5z" />
<glyph unicode="&#x43f;" horiz-adv-x="1187" d="M129 0v989h930v-989h-260v762h-410v-762h-260z" />
<glyph unicode="&#x440;" horiz-adv-x="1193" d="M129 -377v1366h260v-125q119 150 305 150q195 0 317 -138t122 -380t-122 -381.5t-317 -139.5q-186 0 -305 152v-504h-260zM389 319q33 -47 97 -79.5t126 -32.5q112 0 181 80t69 209q0 128 -69 207t-181 79q-63 0 -127 -32.5t-96 -79.5v-351z" />
<glyph unicode="&#x441;" horiz-adv-x="1021" d="M66 496q0 227 147.5 372.5t376.5 145.5q260 0 391 -178l-170 -160q-71 106 -209 106q-119 0 -193.5 -79t-74.5 -207q0 -129 74.5 -209t193.5 -80q134 0 209 106l170 -157q-57 -79 -154 -130t-237 -51q-229 0 -376.5 146.5t-147.5 374.5z" />
<glyph unicode="&#x442;" horiz-adv-x="884" d="M35 762v227h815v-227h-277v-762h-262v762h-276z" />
<glyph unicode="&#x443;" horiz-adv-x="1050" d="M-12 989h278l258 -688l258 688h281l-465 -1151q-52 -131 -144 -183.5t-231 -55.5q-71 0 -129 14l39 233q37 -16 82 -16q103 0 137 72l37 84z" />
<glyph unicode="&#x444;" horiz-adv-x="1722" d="M88 494q0 242 105.5 381t273.5 139q157 0 264 -152v504h260v-502q50 72 118 111t146 39q168 0 273.5 -138t105.5 -380t-105.5 -381.5t-273.5 -139.5q-160 0 -264 152v-504h-260v504q-49 -73 -117.5 -112.5t-146.5 -39.5q-168 0 -273.5 138.5t-105.5 380.5zM350 494 q0 -127 56.5 -207t144.5 -80q50 0 101 32t79 80v351q-27 47 -78.5 79.5t-101.5 32.5q-88 0 -144.5 -80t-56.5 -208zM991 319q27 -46 78 -79t100 -33q89 0 145 80t56 209q0 127 -56 206.5t-145 79.5q-49 0 -100.5 -32.5t-77.5 -79.5v-351z" />
<glyph unicode="&#x445;" horiz-adv-x="1032" d="M0 0l350 508l-330 481h291l205 -305l203 305h291l-332 -481l354 -508h-291l-225 334l-227 -334h-289z" />
<glyph unicode="&#x446;" horiz-adv-x="1202" d="M129 0v989h260v-762h410v762h260v-762h108v-479h-260v252h-778z" />
<glyph unicode="&#x447;" horiz-adv-x="1155" d="M98 631v358h260v-268q0 -101 51 -142.5t158 -41.5q125 0 199 38v414h262v-989h-262v367q-112 -62 -289 -62q-200 0 -289.5 83t-89.5 243z" />
<glyph unicode="&#x448;" horiz-adv-x="1685" d="M129 0v989h260v-762h324v762h260v-762h321v762h262v-989h-1427z" />
<glyph unicode="&#x449;" horiz-adv-x="1712" d="M129 0v989h260v-762h324v762h260v-762h321v762h262v-762h123v-479h-262v252h-1288z" />
<glyph unicode="&#x44a;" horiz-adv-x="1316" d="M35 762v227h538v-340h338q164 0 254 -92.5t90 -230.5t-92 -232t-252 -94h-600v762h-276zM573 219h299q54 0 85.5 30t31.5 77t-31.5 76.5t-85.5 29.5h-299v-213z" />
<glyph unicode="&#x44b;" horiz-adv-x="1589" d="M129 0v989h260v-340h338q164 0 254 -92.5t90 -230.5t-92 -232t-252 -94h-598zM389 219h299q54 0 85.5 30t31.5 77t-31.5 76.5t-85.5 29.5h-299v-213zM1200 0v989h262v-989h-262z" />
<glyph unicode="&#x44c;" horiz-adv-x="1132" d="M129 0v989h260v-340h338q164 0 254 -92.5t90 -230.5t-92 -232t-252 -94h-598zM389 219h299q54 0 85.5 30t31.5 77t-31.5 76.5t-85.5 29.5h-299v-213z" />
<glyph unicode="&#x44d;" horiz-adv-x="1021" d="M41 156l160 143q38 -54 93.5 -85.5t121.5 -31.5q99 0 168 56.5t92 158.5h-400v201h398q-23 99 -91 154t-167 55q-134 0 -215 -115l-160 144q54 77 152 127.5t239 50.5q228 0 376 -145.5t148 -372.5q0 -228 -148 -374.5t-376 -146.5q-141 0 -239 51.5t-152 129.5z" />
<glyph unicode="&#x44e;" horiz-adv-x="1656" d="M129 0v989h260v-366h170q38 172 173.5 281.5t334.5 109.5q159 0 280 -71.5t182.5 -188t61.5 -258.5q0 -106 -36.5 -200.5t-102 -166t-165.5 -113t-220 -41.5q-208 0 -345 117.5t-169 302.5h-164v-395h-260zM815 496q0 -122 67.5 -205.5t184.5 -83.5q118 0 186 83t68 206 q0 121 -68 203.5t-186 82.5q-117 0 -184.5 -82.5t-67.5 -203.5z" />
<glyph unicode="&#x44f;" horiz-adv-x="1173" d="M96 0l230 358q-93 24 -156.5 104t-63.5 204q0 136 92.5 229.5t250.5 93.5h600v-989h-261v340h-202l-195 -340h-295zM371 666q0 -48 32 -78.5t86 -30.5h299v213h-299q-54 0 -86 -29t-32 -75z" />
<glyph unicode="&#x451;" horiz-adv-x="1132" d="M66 496q0 143 64.5 261t182.5 187.5t265 69.5q221 0 358 -151t137 -394v-57h-735q13 -99 88.5 -164.5t196.5 -65.5q66 0 142 27.5t122 71.5l114 -168q-72 -66 -180.5 -102t-226.5 -36q-229 0 -378.5 143.5t-149.5 377.5zM225 1251q0 57 41 97.5t99 40.5q57 0 97 -40.5 t40 -97.5q0 -58 -40 -98.5t-97 -40.5q-59 0 -99.5 40.5t-40.5 98.5zM334 588h487q-2 38 -16.5 74.5t-42 70t-75.5 54t-109 20.5q-58 0 -104.5 -20t-74.5 -53t-44 -70t-21 -76zM657 1251q0 57 41.5 97.5t98.5 40.5t98 -40.5t41 -97.5q0 -58 -41 -98.5t-98 -40.5t-98.5 40.5 t-41.5 98.5z" />
<glyph unicode="&#x452;" horiz-adv-x="1196" d="M16 1081v150h121v135h260v-135h299v-150h-299v-221q53 64 144 109t204 45q160 0 241 -82t81 -230v-729q0 -174 -89 -274t-263 -100q-90 0 -140.5 15t-107.5 54l72 195q60 -51 133 -51q62 0 98.5 40.5t36.5 120.5v629q0 98 -47.5 139t-136.5 41q-70 0 -129 -33.5 t-97 -82.5v-666h-260v1081h-121z" />
<glyph unicode="&#x453;" horiz-adv-x="929" d="M129 0v989h764v-227h-504v-762h-260zM383 1139l274 295h240l-332 -295h-182z" />
<glyph unicode="&#x454;" horiz-adv-x="1021" d="M66 496q0 227 147.5 372.5t376.5 145.5q260 0 391 -178l-160 -144q-38 54 -94.5 84.5t-122.5 30.5q-97 0 -166 -55t-94 -154h399v-201h-399q23 -102 92 -158.5t168 -56.5q66 0 122.5 31.5t94.5 85.5l160 -143q-57 -79 -154 -130t-237 -51q-229 0 -376.5 146.5 t-147.5 374.5z" />
<glyph unicode="&#x455;" horiz-adv-x="976" d="M43 129l113 182q57 -54 155.5 -94.5t186.5 -40.5q82 0 124 29.5t42 77.5q0 33 -32.5 54t-84.5 33t-114.5 23.5t-125 32t-114.5 51.5t-84.5 88.5t-32.5 136.5q0 131 109 221.5t296 90.5q230 0 400 -135l-105 -179q-46 49 -126 82t-167 33q-69 0 -112 -28t-43 -70 q0 -29 32.5 -48t84 -31t113.5 -23.5t124.5 -33.5t114 -54.5t84 -92.5t32.5 -141q0 -139 -114 -228.5t-314 -89.5q-129 0 -246.5 41t-195.5 113z" />
<glyph unicode="&#x456;" d="M102 1251q0 64 46 109t110 45q65 0 110.5 -45t45.5 -109t-45.5 -109.5t-110.5 -45.5q-63 0 -109.5 45.5t-46.5 109.5zM129 0v989h260v-989h-260z" />
<glyph unicode="&#x457;" d="M-96 1251q0 57 40.5 97.5t98.5 40.5q57 0 97 -40.5t40 -97.5q0 -58 -40 -98.5t-97 -40.5q-59 0 -99 40t-40 99zM129 0v989h260v-989h-260zM336 1251q0 57 41 97.5t98 40.5t98 -40.5t41 -97.5q0 -58 -41 -98.5t-98 -40.5t-98 40.5t-41 98.5z" />
<glyph unicode="&#x458;" d="M-211 -332l72 195q60 -51 133 -51q62 0 98.5 40.5t36.5 120.5v1016h260v-1016q0 -174 -89 -274t-263 -100q-90 0 -140.5 15t-107.5 54zM102 1251q0 64 46 109t110 45q65 0 110.5 -45t45.5 -109t-45.5 -109.5t-110.5 -45.5q-63 0 -109.5 45.5t-46.5 109.5z" />
<glyph unicode="&#x459;" horiz-adv-x="1802" d="M37 -25v213q61 0 98 73t60 249l63 479h801v-340h338q164 0 254 -92.5t90 -230.5t-92 -232t-252 -94h-598v762h-314l-32 -283q-31 -259 -130 -381.5t-286 -122.5zM1059 219h299q54 0 85.5 30t31.5 77t-31.5 76.5t-85.5 29.5h-299v-213z" />
<glyph unicode="&#x45a;" horiz-adv-x="1802" d="M129 0v989h260v-360h410v360h260v-360h350q159 0 245.5 -90.5t86.5 -225.5q0 -132 -89 -222.5t-243 -90.5h-610v401h-410v-401h-260zM1059 219h311q49 0 77 26t28 68t-28.5 69.5t-76.5 27.5h-311v-191z" />
<glyph unicode="&#x45b;" horiz-adv-x="1196" d="M16 1081v148h121v137h260v-137h297v-148h-297v-221q53 64 144 109t204 45q160 0 241 -82t81 -230v-702h-260v602q0 98 -47 139t-137 41q-70 0 -129 -33.5t-97 -82.5v-666h-260v1081h-121z" />
<glyph unicode="&#x45c;" horiz-adv-x="1095" d="M129 0v989h260v-440l375 440h319l-391 -448l404 -541h-326l-262 381l-119 -127v-254h-260zM424 1139l274 295h240l-332 -295h-182z" />
<glyph unicode="&#x45e;" horiz-adv-x="1050" d="M-12 989h278l258 -688l258 688h281l-465 -1151q-52 -131 -144 -183.5t-231 -55.5q-71 0 -129 14l39 233q37 -16 82 -16q103 0 137 72l37 84zM166 1268l115 96q90 -127 245 -127q154 0 244 127l115 -96q-62 -85 -156 -133t-203 -48q-107 0 -201.5 48.5t-158.5 132.5z" />
<glyph unicode="&#x45f;" horiz-adv-x="1187" d="M129 0v989h260v-762h410v762h260v-989h-334v-258h-262v258h-334z" />
<glyph unicode="&#x490;" horiz-adv-x="1169" d="M135 0v1366h674v252h293v-508h-676v-1110h-291z" />
<glyph unicode="&#x491;" horiz-adv-x="929" d="M129 0v989h504v258h260v-485h-504v-762h-260z" />
<glyph unicode="&#x2000;" horiz-adv-x="888" />
<glyph unicode="&#x2001;" horiz-adv-x="1776" />
<glyph unicode="&#x2002;" horiz-adv-x="888" />
<glyph unicode="&#x2003;" horiz-adv-x="1776" />
<glyph unicode="&#x2004;" horiz-adv-x="592" />
<glyph unicode="&#x2005;" horiz-adv-x="444" />
<glyph unicode="&#x2006;" horiz-adv-x="296" />
<glyph unicode="&#x2007;" horiz-adv-x="296" />
<glyph unicode="&#x2008;" horiz-adv-x="222" />
<glyph unicode="&#x2009;" horiz-adv-x="355" />
<glyph unicode="&#x200a;" horiz-adv-x="98" />
<glyph unicode="&#x2010;" horiz-adv-x="614" d="M61 385v221h492v-221h-492z" />
<glyph unicode="&#x2011;" horiz-adv-x="614" d="M61 385v221h492v-221h-492z" />
<glyph unicode="&#x2012;" horiz-adv-x="614" d="M61 385v221h492v-221h-492z" />
<glyph unicode="&#x2013;" horiz-adv-x="1214" d="M61 385v221h1092v-221h-1092z" />
<glyph unicode="&#x2014;" horiz-adv-x="1705" d="M61 385v221h1584v-221h-1584z" />
<glyph unicode="&#x2018;" horiz-adv-x="522" d="M78 1008q0 113 57.5 211.5t155.5 166.5l112 -90q-51 -27 -98.5 -83.5t-60.5 -110.5q9 6 41 6q59 0 99 -41t40 -106q0 -66 -48 -114t-114 -48q-76 0 -130 56.5t-54 152.5z" />
<glyph unicode="&#x2019;" horiz-adv-x="522" d="M96 1223q0 67 47.5 115t112.5 48q76 0 130 -56t54 -152q0 -112 -57 -211.5t-154 -169.5l-112 92q51 27 98 83.5t59 110.5q-12 -8 -38 -8q-59 0 -99.5 42t-40.5 106z" />
<glyph unicode="&#x201a;" horiz-adv-x="524" d="M96 145q0 67 47.5 115.5t112.5 48.5q76 0 130 -56.5t54 -152.5q0 -112 -57 -211.5t-154 -169.5l-112 93q51 27 98 83.5t59 108.5q-18 -6 -38 -6q-60 0 -100 41t-40 106z" />
<glyph unicode="&#x201c;" horiz-adv-x="940" d="M82 1008q0 113 56.5 211.5t154.5 166.5l113 -90q-51 -27 -99 -83.5t-61 -110.5q9 6 41 6q59 0 99 -41t40 -106q0 -66 -48 -114t-114 -48q-76 0 -129 56.5t-53 152.5zM500 1008q0 113 56 212t153 166l114 -90q-52 -27 -99.5 -84t-59.5 -110q9 6 41 6q58 0 97.5 -41 t39.5 -106q0 -66 -47.5 -114t-114.5 -48q-75 0 -127.5 56.5t-52.5 152.5z" />
<glyph unicode="&#x201d;" horiz-adv-x="940" d="M96 1223q0 67 47.5 115t112.5 48q76 0 130 -56t54 -152q0 -112 -57 -211.5t-154 -169.5l-112 92q51 27 98 83.5t59 110.5q-12 -8 -38 -8q-59 0 -99.5 42t-40.5 106zM512 1223q0 67 48 115t114 48q76 0 129 -56t53 -152q0 -113 -56.5 -212.5t-154.5 -168.5l-113 92 q51 27 99 83.5t61 110.5q-16 -8 -41 -8q-59 0 -99 42t-40 106z" />
<glyph unicode="&#x201e;" horiz-adv-x="940" d="M96 145q0 67 47.5 115.5t112.5 48.5q76 0 130 -56.5t54 -152.5q0 -112 -57 -211.5t-154 -169.5l-112 93q51 27 98 83.5t59 108.5q-18 -6 -38 -6q-60 0 -100 41t-40 106zM512 145q0 67 48 115.5t114 48.5q76 0 129 -56.5t53 -152.5q0 -113 -56.5 -212.5t-154.5 -168.5 l-113 93q51 27 99 83t61 109q-24 -6 -41 -6q-59 0 -99 41t-40 106z" />
<glyph unicode="&#x2026;" horiz-adv-x="1572" d="M96 143q0 68 48.5 117t115.5 49q68 0 117 -49.5t49 -116.5q0 -66 -49.5 -114.5t-116.5 -48.5t-115.5 48.5t-48.5 114.5zM621 143q0 68 48 117t115 49q68 0 117 -49.5t49 -116.5q0 -66 -49.5 -114.5t-116.5 -48.5t-115 48.5t-48 114.5zM1145 143q0 68 48.5 117t115.5 49 t116.5 -49.5t49.5 -116.5q0 -66 -49.5 -114.5t-116.5 -48.5t-115.5 48.5t-48.5 114.5z" />
<glyph unicode="&#x202f;" horiz-adv-x="355" />
<glyph unicode="&#x2039;" horiz-adv-x="690" d="M61 498l328 362h240l-328 -362l328 -369h-240z" />
<glyph unicode="&#x203a;" horiz-adv-x="690" d="M61 129l328 369l-328 362h240l328 -362l-328 -369h-240z" />
<glyph unicode="&#x205f;" horiz-adv-x="444" />
<glyph unicode="&#x20ac;" horiz-adv-x="1452" d="M43 463v155h76q-2 20 -2 64q0 47 2 70h-76v153h107q67 221 256 352.5t438 131.5q108 0 201.5 -27.5t162 -76.5t118.5 -105.5t89 -124.5l-250 -123q-44 86 -131 142t-190 56q-124 0 -223 -60.5t-154 -164.5h502v-153h-549q-4 -23 -4 -70q0 -24 4 -64h549v-155h-504 q53 -106 153 -168t226 -62q103 0 190 56t131 143l250 -121q-194 -336 -571 -336q-251 0 -440.5 132.5t-256.5 355.5h-104z" />
<glyph unicode="&#x2122;" horiz-adv-x="929" d="M35 1313v53h311v-53h-127v-398h-57v398h-127zM420 915v451h88l131 -328l131 328h88v-451h-57v373l-154 -373h-16l-154 373v-373h-57z" />
<glyph unicode="&#x25fc;" horiz-adv-x="993" d="M0 0v993h993v-993h-993z" />
<hkern g1="afii10092,afii10094,afii10106,afii10107" 	g2="question" 	k="96" />
<hkern g1="afii10092,afii10094,afii10106,afii10107" 	g2="quotedbl,quotesingle,registered,quoteleft,quoteright,quotedblleft,quotedblright,trademark" 	k="164" />
<hkern g1="afii10092,afii10094,afii10106,afii10107" 	g2="afii10084,afii10092" 	k="96" />
<hkern g1="afii10092,afii10094,afii10106,afii10107" 	g2="C,G,O,Q,afii10053,afii10032,afii10035,afii10038" 	k="61" />
<hkern g1="afii10092,afii10094,afii10106,afii10107" 	g2="asterisk" 	k="117" />
<hkern g1="afii10092,afii10094,afii10106,afii10107" 	g2="U" 	k="39" />
<hkern g1="afii10092,afii10094,afii10106,afii10107" 	g2="T,afii10051,afii10060,afii10036,afii10041,afii10044" 	k="205" />
<hkern g1="afii10092,afii10094,afii10106,afii10107" 	g2="W" 	k="102" />
<hkern g1="afii10092,afii10094,afii10106,afii10107" 	g2="V" 	k="96" />
<hkern g1="afii10092,afii10094,afii10106,afii10107" 	g2="Y" 	k="164" />
<hkern g1="B,afii10018,afii10019,afii10025" 	g2="quotedbl,quotesingle,registered,quoteleft,quoteright,quotedblleft,quotedblright,trademark" 	k="20" />
<hkern g1="B,afii10018,afii10019,afii10025" 	g2="T,afii10051,afii10060,afii10036,afii10041,afii10044" 	k="29" />
<hkern g1="B,afii10018,afii10019,afii10025" 	g2="W" 	k="20" />
<hkern g1="B,afii10018,afii10019,afii10025" 	g2="V" 	k="35" />
<hkern g1="B,afii10018,afii10019,afii10025" 	g2="Y" 	k="61" />
<hkern g1="B,afii10018,afii10019,afii10025" 	g2="afii10069,afii10077,afii10106" 	k="20" />
<hkern g1="afii10067,afii10073" 	g2="question" 	k="96" />
<hkern g1="afii10067,afii10073" 	g2="T,afii10051,afii10060,afii10036,afii10041,afii10044" 	k="57" />
<hkern g1="afii10067,afii10073" 	g2="V" 	k="41" />
<hkern g1="afii10067,afii10073" 	g2="Y" 	k="82" />
<hkern g1="C,afii10053,afii10035" 	g2="question" 	k="14" />
<hkern g1="C,afii10053,afii10035" 	g2="W" 	k="14" />
<hkern g1="C,afii10053,afii10035" 	g2="V" 	k="8" />
<hkern g1="C,afii10053,afii10035" 	g2="Y" 	k="47" />
<hkern g1="C,afii10053,afii10035" 	g2="afii10069,afii10077,afii10106" 	k="14" />
<hkern g1="C,afii10053,afii10035" 	g2="A,afii10058,afii10017,afii10021,afii10029" 	k="14" />
<hkern g1="D,O,Q,afii10032,afii10038,afii10047,afii10048" 	g2="question" 	k="47" />
<hkern g1="D,O,Q,afii10032,afii10038,afii10047,afii10048" 	g2="quotedbl,quotesingle,registered,quoteleft,quoteright,quotedblleft,quotedblright,trademark" 	k="20" />
<hkern g1="D,O,Q,afii10032,afii10038,afii10047,afii10048" 	g2="J,afii10057" 	k="41" />
<hkern g1="D,O,Q,afii10032,afii10038,afii10047,afii10048" 	g2="T,afii10051,afii10060,afii10036,afii10041,afii10044" 	k="49" />
<hkern g1="D,O,Q,afii10032,afii10038,afii10047,afii10048" 	g2="W" 	k="41" />
<hkern g1="D,O,Q,afii10032,afii10038,afii10047,afii10048" 	g2="V" 	k="41" />
<hkern g1="D,O,Q,afii10032,afii10038,afii10047,afii10048" 	g2="Y" 	k="82" />
<hkern g1="D,O,Q,afii10032,afii10038,afii10047,afii10048" 	g2="afii10069,afii10077,afii10106" 	k="61" />
<hkern g1="D,O,Q,afii10032,afii10038,afii10047,afii10048" 	g2="A,afii10058,afii10017,afii10021,afii10029" 	k="70" />
<hkern g1="D,O,Q,afii10032,afii10038,afii10047,afii10048" 	g2="Z" 	k="29" />
<hkern g1="D,O,Q,afii10032,afii10038,afii10047,afii10048" 	g2="comma,period,quotesinglbase,quotedblbase,ellipsis" 	k="49" />
<hkern g1="D,O,Q,afii10032,afii10038,afii10047,afii10048" 	g2="X,afii10062,afii10024,afii10037,afii10039" 	k="61" />
<hkern g1="F" 	g2="J,afii10057" 	k="143" />
<hkern g1="F" 	g2="afii10069,afii10077,afii10106" 	k="102" />
<hkern g1="F" 	g2="A,afii10058,afii10017,afii10021,afii10029" 	k="88" />
<hkern g1="F" 	g2="comma,period,quotesinglbase,quotedblbase,ellipsis" 	k="102" />
<hkern g1="F" 	g2="ampersand" 	k="27" />
<hkern g1="G" 	g2="question" 	k="27" />
<hkern g1="G" 	g2="T,afii10051,afii10060,afii10036,afii10041,afii10044" 	k="14" />
<hkern g1="G" 	g2="W" 	k="14" />
<hkern g1="G" 	g2="V" 	k="27" />
<hkern g1="G" 	g2="Y" 	k="39" />
<hkern g1="G" 	g2="A,afii10058,afii10017,afii10021,afii10029" 	k="14" />
<hkern g1="G" 	g2="X,afii10062,afii10024,afii10037,afii10039" 	k="14" />
<hkern g1="K,afii10061,afii10024,afii10028" 	g2="afii10084,afii10092" 	k="115" />
<hkern g1="K,afii10061,afii10024,afii10028" 	g2="C,G,O,Q,afii10053,afii10032,afii10035,afii10038" 	k="96" />
<hkern g1="K,afii10061,afii10024,afii10028" 	g2="Y" 	k="23" />
<hkern g1="K,afii10061,afii10024,afii10028" 	g2="f" 	k="68" />
<hkern g1="K,afii10061,afii10024,afii10028" 	g2="u,ugrave,uacute,ucircumflex,udieresis" 	k="41" />
<hkern g1="K,afii10061,afii10024,afii10028" 	g2="t" 	k="102" />
<hkern g1="K,afii10061,afii10024,afii10028" 	g2="w,afii10089" 	k="82" />
<hkern g1="K,afii10061,afii10024,afii10028" 	g2="v" 	k="123" />
<hkern g1="K,afii10061,afii10024,afii10028" 	g2="y,yacute,ydieresis,afii10085,afii10110" 	k="123" />
<hkern g1="K,afii10061,afii10024,afii10028" 	g2="hyphen,endash,emdash" 	k="102" />
<hkern g1="K,afii10061,afii10024,afii10028" 	g2="a,agrave,aacute,acircumflex,atilde,adieresis,aring,ae,afii10065" 	k="29" />
<hkern g1="K,afii10061,afii10024,afii10028" 	g2="c,d,e,g,o,q,cent,ccedilla,egrave,eacute,ecircumflex,edieresis,eth,ograve,oacute,ocircumflex,otilde,odieresis,oslash,oe,afii10066,afii10070,afii10080,afii10083,afii10086,afii10071,afii10101" 	k="55" />
<hkern g1="K,afii10061,afii10024,afii10028" 	g2="x,afii10072,afii10087" 	k="68" />
<hkern g1="L" 	g2="question" 	k="219" />
<hkern g1="L" 	g2="quotedbl,quotesingle,registered,quoteleft,quoteright,quotedblleft,quotedblright,trademark" 	k="279" />
<hkern g1="L" 	g2="afii10084,afii10092" 	k="152" />
<hkern g1="L" 	g2="C,G,O,Q,afii10053,afii10032,afii10035,afii10038" 	k="55" />
<hkern g1="L" 	g2="asterisk" 	k="342" />
<hkern g1="L" 	g2="U" 	k="49" />
<hkern g1="L" 	g2="T,afii10051,afii10060,afii10036,afii10041,afii10044" 	k="205" />
<hkern g1="L" 	g2="W" 	k="150" />
<hkern g1="L" 	g2="V" 	k="184" />
<hkern g1="L" 	g2="Y" 	k="260" />
<hkern g1="L" 	g2="u,ugrave,uacute,ucircumflex,udieresis" 	k="14" />
<hkern g1="L" 	g2="t" 	k="76" />
<hkern g1="L" 	g2="w,afii10089" 	k="70" />
<hkern g1="L" 	g2="v" 	k="111" />
<hkern g1="L" 	g2="y,yacute,ydieresis,afii10085,afii10110" 	k="111" />
<hkern g1="L" 	g2="ampersand" 	k="8" />
<hkern g1="L" 	g2="a,agrave,aacute,acircumflex,atilde,adieresis,aring,ae,afii10065" 	k="14" />
<hkern g1="L" 	g2="c,d,e,g,o,q,cent,ccedilla,egrave,eacute,ecircumflex,edieresis,eth,ograve,oacute,ocircumflex,otilde,odieresis,oslash,oe,afii10066,afii10070,afii10080,afii10083,afii10086,afii10071,afii10101" 	k="23" />
<hkern g1="P,afii10034" 	g2="J,afii10057" 	k="246" />
<hkern g1="P,afii10034" 	g2="Y" 	k="12" />
<hkern g1="P,afii10034" 	g2="afii10069,afii10077,afii10106" 	k="164" />
<hkern g1="P,afii10034" 	g2="A,afii10058,afii10017,afii10021,afii10029" 	k="152" />
<hkern g1="P,afii10034" 	g2="comma,period,quotesinglbase,quotedblbase,ellipsis" 	k="178" />
<hkern g1="P,afii10034" 	g2="X,afii10062,afii10024,afii10037,afii10039" 	k="41" />
<hkern g1="P,afii10034" 	g2="ampersand" 	k="68" />
<hkern g1="P,afii10034" 	g2="hyphen,endash,emdash" 	k="55" />
<hkern g1="P,afii10034" 	g2="a,agrave,aacute,acircumflex,atilde,adieresis,aring,ae,afii10065" 	k="41" />
<hkern g1="P,afii10034" 	g2="c,d,e,g,o,q,cent,ccedilla,egrave,eacute,ecircumflex,edieresis,eth,ograve,oacute,ocircumflex,otilde,odieresis,oslash,oe,afii10066,afii10070,afii10080,afii10083,afii10086,afii10071,afii10101" 	k="35" />
<hkern g1="R" 	g2="quotedbl,quotesingle,registered,quoteleft,quoteright,quotedblleft,quotedblright,trademark" 	k="14" />
<hkern g1="R" 	g2="T,afii10051,afii10060,afii10036,afii10041,afii10044" 	k="20" />
<hkern g1="R" 	g2="V" 	k="20" />
<hkern g1="R" 	g2="Y" 	k="37" />
<hkern g1="R" 	g2="ampersand" 	k="12" />
<hkern g1="R" 	g2="a,agrave,aacute,acircumflex,atilde,adieresis,aring,ae,afii10065" 	k="41" />
<hkern g1="R" 	g2="c,d,e,g,o,q,cent,ccedilla,egrave,eacute,ecircumflex,edieresis,eth,ograve,oacute,ocircumflex,otilde,odieresis,oslash,oe,afii10066,afii10070,afii10080,afii10083,afii10086,afii10071,afii10101" 	k="61" />
<hkern g1="R" 	g2="s,afii10073,afii10095,afii10102" 	k="27" />
<hkern g1="S,afii10054" 	g2="afii10084,afii10092" 	k="27" />
<hkern g1="S,afii10054" 	g2="T,afii10051,afii10060,afii10036,afii10041,afii10044" 	k="27" />
<hkern g1="S,afii10054" 	g2="Y" 	k="20" />
<hkern g1="S,afii10054" 	g2="t" 	k="29" />
<hkern g1="S,afii10054" 	g2="w,afii10089" 	k="14" />
<hkern g1="S,afii10054" 	g2="v" 	k="27" />
<hkern g1="S,afii10054" 	g2="y,yacute,ydieresis,afii10085,afii10110" 	k="27" />
<hkern g1="S,afii10054" 	g2="A,afii10058,afii10017,afii10021,afii10029" 	k="20" />
<hkern g1="S,afii10054" 	g2="x,afii10072,afii10087" 	k="35" />
<hkern g1="T,afii10052,afii10020,afii10036,afii10050" 	g2="afii10084,afii10092" 	k="29" />
<hkern g1="T,afii10052,afii10020,afii10036,afii10050" 	g2="C,G,O,Q,afii10053,afii10032,afii10035,afii10038" 	k="49" />
<hkern g1="T,afii10052,afii10020,afii10036,afii10050" 	g2="J,afii10057" 	k="178" />
<hkern g1="T,afii10052,afii10020,afii10036,afii10050" 	g2="S,afii10054,afii10025" 	k="14" />
<hkern g1="T,afii10052,afii10020,afii10036,afii10050" 	g2="f" 	k="43" />
<hkern g1="T,afii10052,afii10020,afii10036,afii10050" 	g2="u,ugrave,uacute,ucircumflex,udieresis" 	k="139" />
<hkern g1="T,afii10052,afii10020,afii10036,afii10050" 	g2="w,afii10089" 	k="57" />
<hkern g1="T,afii10052,afii10020,afii10036,afii10050" 	g2="v" 	k="57" />
<hkern g1="T,afii10052,afii10020,afii10036,afii10050" 	g2="y,yacute,ydieresis,afii10085,afii10110" 	k="57" />
<hkern g1="T,afii10052,afii10020,afii10036,afii10050" 	g2="afii10069,afii10077,afii10106" 	k="205" />
<hkern g1="T,afii10052,afii10020,afii10036,afii10050" 	g2="A,afii10058,afii10017,afii10021,afii10029" 	k="131" />
<hkern g1="T,afii10052,afii10020,afii10036,afii10050" 	g2="comma,period,quotesinglbase,quotedblbase,ellipsis" 	k="199" />
<hkern g1="T,afii10052,afii10020,afii10036,afii10050" 	g2="ampersand" 	k="111" />
<hkern g1="T,afii10052,afii10020,afii10036,afii10050" 	g2="hyphen,endash,emdash" 	k="123" />
<hkern g1="T,afii10052,afii10020,afii10036,afii10050" 	g2="a,agrave,aacute,acircumflex,atilde,adieresis,aring,ae,afii10065" 	k="160" />
<hkern g1="T,afii10052,afii10020,afii10036,afii10050" 	g2="c,d,e,g,o,q,cent,ccedilla,egrave,eacute,ecircumflex,edieresis,eth,ograve,oacute,ocircumflex,otilde,odieresis,oslash,oe,afii10066,afii10070,afii10080,afii10083,afii10086,afii10071,afii10101" 	k="201" />
<hkern g1="T,afii10052,afii10020,afii10036,afii10050" 	g2="x,afii10072,afii10087" 	k="78" />
<hkern g1="T,afii10052,afii10020,afii10036,afii10050" 	g2="s,afii10073,afii10095,afii10102" 	k="166" />
<hkern g1="T,afii10052,afii10020,afii10036,afii10050" 	g2="colon,semicolon" 	k="102" />
<hkern g1="T,afii10052,afii10020,afii10036,afii10050" 	g2="m,n,p,r,z,ntilde,afii10067,afii10074,afii10076,afii10078,afii10079,afii10081,afii10082,afii10088,afii10090,afii10091,afii10093,afii10094,afii10096,afii10097,afii10100,afii10107,afii10193,afii10098" 	k="139" />
<hkern g1="afii10068,afii10084,afii10100,afii10098" 	g2="T,afii10051,afii10060,afii10036,afii10041,afii10044" 	k="29" />
<hkern g1="afii10068,afii10084,afii10100,afii10098" 	g2="V" 	k="14" />
<hkern g1="afii10068,afii10084,afii10100,afii10098" 	g2="afii10069,afii10077,afii10106" 	k="96" />
<hkern g1="afii10068,afii10084,afii10100,afii10098" 	g2="A,afii10058,afii10017,afii10021,afii10029" 	k="70" />
<hkern g1="afii10068,afii10084,afii10100,afii10098" 	g2="comma,period,quotesinglbase,quotedblbase,ellipsis" 	k="123" />
<hkern g1="afii10068,afii10084,afii10100,afii10098" 	g2="ampersand" 	k="76" />
<hkern g1="J,U,afii10057" 	g2="J,afii10057" 	k="53" />
<hkern g1="J,U,afii10057" 	g2="afii10069,afii10077,afii10106" 	k="39" />
<hkern g1="J,U,afii10057" 	g2="A,afii10058,afii10017,afii10021,afii10029" 	k="68" />
<hkern g1="J,U,afii10057" 	g2="comma,period,quotesinglbase,quotedblbase,ellipsis" 	k="61" />
<hkern g1="V,afii10062,afii10037" 	g2="afii10084,afii10092" 	k="14" />
<hkern g1="V,afii10062,afii10037" 	g2="C,G,O,Q,afii10053,afii10032,afii10035,afii10038" 	k="41" />
<hkern g1="V,afii10062,afii10037" 	g2="J,afii10057" 	k="199" />
<hkern g1="V,afii10062,afii10037" 	g2="f" 	k="55" />
<hkern g1="V,afii10062,afii10037" 	g2="u,ugrave,uacute,ucircumflex,udieresis" 	k="115" />
<hkern g1="V,afii10062,afii10037" 	g2="t" 	k="35" />
<hkern g1="V,afii10062,afii10037" 	g2="w,afii10089" 	k="27" />
<hkern g1="V,afii10062,afii10037" 	g2="v" 	k="35" />
<hkern g1="V,afii10062,afii10037" 	g2="y,yacute,ydieresis,afii10085,afii10110" 	k="27" />
<hkern g1="V,afii10062,afii10037" 	g2="afii10069,afii10077,afii10106" 	k="96" />
<hkern g1="V,afii10062,afii10037" 	g2="A,afii10058,afii10017,afii10021,afii10029" 	k="96" />
<hkern g1="V,afii10062,afii10037" 	g2="comma,period,quotesinglbase,quotedblbase,ellipsis" 	k="184" />
<hkern g1="V,afii10062,afii10037" 	g2="ampersand" 	k="82" />
<hkern g1="V,afii10062,afii10037" 	g2="hyphen,endash,emdash" 	k="117" />
<hkern g1="V,afii10062,afii10037" 	g2="a,agrave,aacute,acircumflex,atilde,adieresis,aring,ae,afii10065" 	k="137" />
<hkern g1="V,afii10062,afii10037" 	g2="c,d,e,g,o,q,cent,ccedilla,egrave,eacute,ecircumflex,edieresis,eth,ograve,oacute,ocircumflex,otilde,odieresis,oslash,oe,afii10066,afii10070,afii10080,afii10083,afii10086,afii10071,afii10101" 	k="123" />
<hkern g1="V,afii10062,afii10037" 	g2="x,afii10072,afii10087" 	k="53" />
<hkern g1="V,afii10062,afii10037" 	g2="s,afii10073,afii10095,afii10102" 	k="102" />
<hkern g1="V,afii10062,afii10037" 	g2="m,n,p,r,z,ntilde,afii10067,afii10074,afii10076,afii10078,afii10079,afii10081,afii10082,afii10088,afii10090,afii10091,afii10093,afii10094,afii10096,afii10097,afii10100,afii10107,afii10193,afii10098" 	k="115" />
<hkern g1="W" 	g2="C,G,O,Q,afii10053,afii10032,afii10035,afii10038" 	k="41" />
<hkern g1="W" 	g2="J,afii10057" 	k="121" />
<hkern g1="W" 	g2="f" 	k="33" />
<hkern g1="W" 	g2="u,ugrave,uacute,ucircumflex,udieresis" 	k="61" />
<hkern g1="W" 	g2="t" 	k="33" />
<hkern g1="W" 	g2="v" 	k="14" />
<hkern g1="W" 	g2="y,yacute,ydieresis,afii10085,afii10110" 	k="14" />
<hkern g1="W" 	g2="afii10069,afii10077,afii10106" 	k="102" />
<hkern g1="W" 	g2="A,afii10058,afii10017,afii10021,afii10029" 	k="90" />
<hkern g1="W" 	g2="comma,period,quotesinglbase,quotedblbase,ellipsis" 	k="131" />
<hkern g1="W" 	g2="ampersand" 	k="41" />
<hkern g1="W" 	g2="hyphen,endash,emdash" 	k="76" />
<hkern g1="W" 	g2="a,agrave,aacute,acircumflex,atilde,adieresis,aring,ae,afii10065" 	k="82" />
<hkern g1="W" 	g2="c,d,e,g,o,q,cent,ccedilla,egrave,eacute,ecircumflex,edieresis,eth,ograve,oacute,ocircumflex,otilde,odieresis,oslash,oe,afii10066,afii10070,afii10080,afii10083,afii10086,afii10071,afii10101" 	k="82" />
<hkern g1="W" 	g2="x,afii10072,afii10087" 	k="53" />
<hkern g1="W" 	g2="s,afii10073,afii10095,afii10102" 	k="59" />
<hkern g1="W" 	g2="m,n,p,r,z,ntilde,afii10067,afii10074,afii10076,afii10078,afii10079,afii10081,afii10082,afii10088,afii10090,afii10091,afii10093,afii10094,afii10096,afii10097,afii10100,afii10107,afii10193,afii10098" 	k="61" />
<hkern g1="Y" 	g2="C,G,O,Q,afii10053,afii10032,afii10035,afii10038" 	k="82" />
<hkern g1="Y" 	g2="J,afii10057" 	k="240" />
<hkern g1="Y" 	g2="S,afii10054,afii10025" 	k="41" />
<hkern g1="Y" 	g2="f" 	k="123" />
<hkern g1="Y" 	g2="u,ugrave,uacute,ucircumflex,udieresis" 	k="184" />
<hkern g1="Y" 	g2="t" 	k="68" />
<hkern g1="Y" 	g2="w,afii10089" 	k="123" />
<hkern g1="Y" 	g2="v" 	k="123" />
<hkern g1="Y" 	g2="y,yacute,ydieresis,afii10085,afii10110" 	k="123" />
<hkern g1="Y" 	g2="afii10069,afii10077,afii10106" 	k="164" />
<hkern g1="Y" 	g2="A,afii10058,afii10017,afii10021,afii10029" 	k="137" />
<hkern g1="Y" 	g2="comma,period,quotesinglbase,quotedblbase,ellipsis" 	k="184" />
<hkern g1="Y" 	g2="ampersand" 	k="123" />
<hkern g1="Y" 	g2="hyphen,endash,emdash" 	k="252" />
<hkern g1="Y" 	g2="a,agrave,aacute,acircumflex,atilde,adieresis,aring,ae,afii10065" 	k="227" />
<hkern g1="Y" 	g2="c,d,e,g,o,q,cent,ccedilla,egrave,eacute,ecircumflex,edieresis,eth,ograve,oacute,ocircumflex,otilde,odieresis,oslash,oe,afii10066,afii10070,afii10080,afii10083,afii10086,afii10071,afii10101" 	k="254" />
<hkern g1="Y" 	g2="x,afii10072,afii10087" 	k="158" />
<hkern g1="Y" 	g2="s,afii10073,afii10095,afii10102" 	k="205" />
<hkern g1="Y" 	g2="colon,semicolon" 	k="143" />
<hkern g1="Y" 	g2="m,n,p,r,z,ntilde,afii10067,afii10074,afii10076,afii10078,afii10079,afii10081,afii10082,afii10088,afii10090,afii10091,afii10093,afii10094,afii10096,afii10097,afii10100,afii10107,afii10193,afii10098" 	k="184" />
<hkern g1="Z" 	g2="C,G,O,Q,afii10053,afii10032,afii10035,afii10038" 	k="29" />
<hkern g1="a,h,m,n,agrave,aacute,acircumflex,atilde,adieresis,aring,ntilde,afii10065" 	g2="question" 	k="88" />
<hkern g1="a,h,m,n,agrave,aacute,acircumflex,atilde,adieresis,aring,ntilde,afii10065" 	g2="quotedbl,quotesingle,registered,quoteleft,quoteright,quotedblleft,quotedblright,trademark" 	k="27" />
<hkern g1="a,h,m,n,agrave,aacute,acircumflex,atilde,adieresis,aring,ntilde,afii10065" 	g2="T,afii10051,afii10060,afii10036,afii10041,afii10044" 	k="193" />
<hkern g1="a,h,m,n,agrave,aacute,acircumflex,atilde,adieresis,aring,ntilde,afii10065" 	g2="W" 	k="96" />
<hkern g1="a,h,m,n,agrave,aacute,acircumflex,atilde,adieresis,aring,ntilde,afii10065" 	g2="V" 	k="150" />
<hkern g1="a,h,m,n,agrave,aacute,acircumflex,atilde,adieresis,aring,ntilde,afii10065" 	g2="Y" 	k="225" />
<hkern g1="ampersand" 	g2="afii10084,afii10092" 	k="117" />
<hkern g1="ampersand" 	g2="T,afii10051,afii10060,afii10036,afii10041,afii10044" 	k="137" />
<hkern g1="ampersand" 	g2="W" 	k="70" />
<hkern g1="ampersand" 	g2="V" 	k="102" />
<hkern g1="ampersand" 	g2="Y" 	k="166" />
<hkern g1="asterisk" 	g2="J,afii10057" 	k="252" />
<hkern g1="asterisk" 	g2="afii10069,afii10077,afii10106" 	k="117" />
<hkern g1="asterisk" 	g2="A,afii10058,afii10017,afii10021,afii10029" 	k="186" />
<hkern g1="b,o,p,ograve,oacute,ocircumflex,otilde,odieresis,oslash,thorn,afii10080,afii10082,afii10086,afii10095,afii10096" 	g2="question" 	k="109" />
<hkern g1="b,o,p,ograve,oacute,ocircumflex,otilde,odieresis,oslash,thorn,afii10080,afii10082,afii10086,afii10095,afii10096" 	g2="quotedbl,quotesingle,registered,quoteleft,quoteright,quotedblleft,quotedblright,trademark" 	k="20" />
<hkern g1="b,o,p,ograve,oacute,ocircumflex,otilde,odieresis,oslash,thorn,afii10080,afii10082,afii10086,afii10095,afii10096" 	g2="T,afii10051,afii10060,afii10036,afii10041,afii10044" 	k="201" />
<hkern g1="b,o,p,ograve,oacute,ocircumflex,otilde,odieresis,oslash,thorn,afii10080,afii10082,afii10086,afii10095,afii10096" 	g2="W" 	k="82" />
<hkern g1="b,o,p,ograve,oacute,ocircumflex,otilde,odieresis,oslash,thorn,afii10080,afii10082,afii10086,afii10095,afii10096" 	g2="V" 	k="123" />
<hkern g1="b,o,p,ograve,oacute,ocircumflex,otilde,odieresis,oslash,thorn,afii10080,afii10082,afii10086,afii10095,afii10096" 	g2="Y" 	k="240" />
<hkern g1="b,o,p,ograve,oacute,ocircumflex,otilde,odieresis,oslash,thorn,afii10080,afii10082,afii10086,afii10095,afii10096" 	g2="comma,period,quotesinglbase,quotedblbase,ellipsis" 	k="8" />
<hkern g1="b,o,p,ograve,oacute,ocircumflex,otilde,odieresis,oslash,thorn,afii10080,afii10082,afii10086,afii10095,afii10096" 	g2="x,afii10072,afii10087" 	k="70" />
<hkern g1="c,cent,ccedilla,afii10083,afii10101" 	g2="question" 	k="55" />
<hkern g1="c,cent,ccedilla,afii10083,afii10101" 	g2="quotedbl,quotesingle,registered,quoteleft,quoteright,quotedblleft,quotedblright,trademark" 	k="14" />
<hkern g1="c,cent,ccedilla,afii10083,afii10101" 	g2="T,afii10051,afii10060,afii10036,afii10041,afii10044" 	k="145" />
<hkern g1="c,cent,ccedilla,afii10083,afii10101" 	g2="W" 	k="55" />
<hkern g1="c,cent,ccedilla,afii10083,afii10101" 	g2="V" 	k="88" />
<hkern g1="c,cent,ccedilla,afii10083,afii10101" 	g2="Y" 	k="137" />
<hkern g1="colon,semicolon" 	g2="T,afii10051,afii10060,afii10036,afii10041,afii10044" 	k="102" />
<hkern g1="colon,semicolon" 	g2="Y" 	k="143" />
<hkern g1="e,ae,egrave,eacute,ecircumflex,edieresis,oe,afii10070,afii10071" 	g2="question" 	k="88" />
<hkern g1="e,ae,egrave,eacute,ecircumflex,edieresis,oe,afii10070,afii10071" 	g2="quotedbl,quotesingle,registered,quoteleft,quoteright,quotedblleft,quotedblright,trademark" 	k="14" />
<hkern g1="e,ae,egrave,eacute,ecircumflex,edieresis,oe,afii10070,afii10071" 	g2="asterisk" 	k="29" />
<hkern g1="e,ae,egrave,eacute,ecircumflex,edieresis,oe,afii10070,afii10071" 	g2="T,afii10051,afii10060,afii10036,afii10041,afii10044" 	k="186" />
<hkern g1="e,ae,egrave,eacute,ecircumflex,edieresis,oe,afii10070,afii10071" 	g2="W" 	k="82" />
<hkern g1="e,ae,egrave,eacute,ecircumflex,edieresis,oe,afii10070,afii10071" 	g2="V" 	k="117" />
<hkern g1="e,ae,egrave,eacute,ecircumflex,edieresis,oe,afii10070,afii10071" 	g2="Y" 	k="225" />
<hkern g1="e,ae,egrave,eacute,ecircumflex,edieresis,oe,afii10070,afii10071" 	g2="comma,period,quotesinglbase,quotedblbase,ellipsis" 	k="8" />
<hkern g1="eth" 	g2="comma,period,quotesinglbase,quotedblbase,ellipsis" 	k="8" />
<hkern g1="f" 	g2="question" 	k="-111" />
<hkern g1="f" 	g2="quotedbl,quotesingle,registered,quoteleft,quoteright,quotedblleft,quotedblright,trademark" 	k="-131" />
<hkern g1="f" 	g2="asterisk" 	k="-131" />
<hkern g1="f" 	g2="S,afii10054,afii10025" 	k="-55" />
<hkern g1="f" 	g2="U" 	k="-82" />
<hkern g1="f" 	g2="T,afii10051,afii10060,afii10036,afii10041,afii10044" 	k="-82" />
<hkern g1="f" 	g2="W" 	k="-137" />
<hkern g1="f" 	g2="V" 	k="-137" />
<hkern g1="f" 	g2="Y" 	k="-129" />
<hkern g1="f" 	g2="Z" 	k="-82" />
<hkern g1="f" 	g2="comma,period,quotesinglbase,quotedblbase,ellipsis" 	k="96" />
<hkern g1="f" 	g2="X,afii10062,afii10024,afii10037,afii10039" 	k="-82" />
<hkern g1="f" 	g2="ampersand" 	k="14" />
<hkern g1="f" 	g2="exclam,B,D,E,F,H,I,K,L,M,N,P,R" 	k="-82" />
<hkern g1="f" 	g2="parenright,bracketright,braceright" 	k="-137" />
<hkern g1="g,j,q,afii10105" 	g2="question" 	k="55" />
<hkern g1="g,j,q,afii10105" 	g2="T,afii10051,afii10060,afii10036,afii10041,afii10044" 	k="139" />
<hkern g1="g,j,q,afii10105" 	g2="W" 	k="61" />
<hkern g1="g,j,q,afii10105" 	g2="V" 	k="115" />
<hkern g1="g,j,q,afii10105" 	g2="Y" 	k="184" />
<hkern g1="g,j,q,afii10105" 	g2="j,afii10105" 	k="-109" />
<hkern g1="hyphen,endash,emdash" 	g2="W" 	k="76" />
<hkern g1="hyphen,endash,emdash" 	g2="V" 	k="117" />
<hkern g1="hyphen,endash,emdash" 	g2="Y" 	k="246" />
<hkern g1="hyphen,endash,emdash" 	g2="X,afii10062,afii10024,afii10037,afii10039" 	k="94" />
<hkern g1="k,afii10072,afii10076,afii10109" 	g2="T,afii10051,afii10060,afii10036,afii10041,afii10044" 	k="92" />
<hkern g1="k,afii10072,afii10076,afii10109" 	g2="W" 	k="53" />
<hkern g1="k,afii10072,afii10076,afii10109" 	g2="V" 	k="53" />
<hkern g1="k,afii10072,afii10076,afii10109" 	g2="Y" 	k="150" />
<hkern g1="k,afii10072,afii10076,afii10109" 	g2="hyphen,endash,emdash" 	k="49" />
<hkern g1="k,afii10072,afii10076,afii10109" 	g2="c,d,e,g,o,q,cent,ccedilla,egrave,eacute,ecircumflex,edieresis,eth,ograve,oacute,ocircumflex,otilde,odieresis,oslash,oe,afii10066,afii10070,afii10080,afii10083,afii10086,afii10071,afii10101" 	k="12" />
<hkern g1="comma,period,quotesinglbase,quotedblbase,ellipsis" 	g2="quotedbl,quotesingle,registered,quoteleft,quoteright,quotedblleft,quotedblright,trademark" 	k="170" />
<hkern g1="comma,period,quotesinglbase,quotedblbase,ellipsis" 	g2="afii10084,afii10092" 	k="123" />
<hkern g1="comma,period,quotesinglbase,quotedblbase,ellipsis" 	g2="U" 	k="61" />
<hkern g1="comma,period,quotesinglbase,quotedblbase,ellipsis" 	g2="T,afii10051,afii10060,afii10036,afii10041,afii10044" 	k="199" />
<hkern g1="comma,period,quotesinglbase,quotedblbase,ellipsis" 	g2="W" 	k="131" />
<hkern g1="comma,period,quotesinglbase,quotedblbase,ellipsis" 	g2="V" 	k="172" />
<hkern g1="comma,period,quotesinglbase,quotedblbase,ellipsis" 	g2="Y" 	k="184" />
<hkern g1="comma,period,quotesinglbase,quotedblbase,ellipsis" 	g2="f" 	k="55" />
<hkern g1="comma,period,quotesinglbase,quotedblbase,ellipsis" 	g2="t" 	k="55" />
<hkern g1="comma,period,quotesinglbase,quotedblbase,ellipsis" 	g2="w,afii10089" 	k="76" />
<hkern g1="comma,period,quotesinglbase,quotedblbase,ellipsis" 	g2="v" 	k="131" />
<hkern g1="comma,period,quotesinglbase,quotedblbase,ellipsis" 	g2="y,yacute,ydieresis,afii10085,afii10110" 	k="111" />
<hkern g1="comma,period,quotesinglbase,quotedblbase,ellipsis" 	g2="c,d,e,g,o,q,cent,ccedilla,egrave,eacute,ecircumflex,edieresis,eth,ograve,oacute,ocircumflex,otilde,odieresis,oslash,oe,afii10066,afii10070,afii10080,afii10083,afii10086,afii10071,afii10101" 	k="8" />
<hkern g1="comma,period,quotesinglbase,quotedblbase,ellipsis" 	g2="j,afii10105" 	k="-82" />
<hkern g1="comma,period,quotesinglbase,quotedblbase,ellipsis" 	g2="seven" 	k="150" />
<hkern g1="comma,period,quotesinglbase,quotedblbase,ellipsis" 	g2="one" 	k="203" />
<hkern g1="comma,period,quotesinglbase,quotedblbase,ellipsis" 	g2="zero,six" 	k="43" />
<hkern g1="quotedbl,quotesingle,quoteleft,quoteright,quotedblleft,quotedblright" 	g2="C,G,O,Q,afii10053,afii10032,afii10035,afii10038" 	k="14" />
<hkern g1="quotedbl,quotesingle,quoteleft,quoteright,quotedblleft,quotedblright" 	g2="J,afii10057" 	k="217" />
<hkern g1="quotedbl,quotesingle,quoteleft,quoteright,quotedblleft,quotedblright" 	g2="afii10069,afii10077,afii10106" 	k="164" />
<hkern g1="quotedbl,quotesingle,quoteleft,quoteright,quotedblleft,quotedblright" 	g2="A,afii10058,afii10017,afii10021,afii10029" 	k="199" />
<hkern g1="quotedbl,quotesingle,quoteleft,quoteright,quotedblleft,quotedblright" 	g2="comma,period,quotesinglbase,quotedblbase,ellipsis" 	k="170" />
<hkern g1="quotedbl,quotesingle,quoteleft,quoteright,quotedblleft,quotedblright" 	g2="s,afii10073,afii10095,afii10102" 	k="61" />
<hkern g1="r" 	g2="T,afii10051,afii10060,afii10036,afii10041,afii10044" 	k="70" />
<hkern g1="r" 	g2="W" 	k="27" />
<hkern g1="r" 	g2="V" 	k="55" />
<hkern g1="r" 	g2="Y" 	k="102" />
<hkern g1="r" 	g2="comma,period,quotesinglbase,quotedblbase,ellipsis" 	k="178" />
<hkern g1="r" 	g2="X,afii10062,afii10024,afii10037,afii10039" 	k="39" />
<hkern g1="s,afii10102" 	g2="question" 	k="96" />
<hkern g1="s,afii10102" 	g2="quotedbl,quotesingle,registered,quoteleft,quoteright,quotedblleft,quotedblright,trademark" 	k="41" />
<hkern g1="s,afii10102" 	g2="T,afii10051,afii10060,afii10036,afii10041,afii10044" 	k="152" />
<hkern g1="s,afii10102" 	g2="W" 	k="100" />
<hkern g1="s,afii10102" 	g2="V" 	k="94" />
<hkern g1="s,afii10102" 	g2="Y" 	k="199" />
<hkern g1="s,afii10102" 	g2="X,afii10062,afii10024,afii10037,afii10039" 	k="14" />
<hkern g1="t" 	g2="T,afii10051,afii10060,afii10036,afii10041,afii10044" 	k="63" />
<hkern g1="t" 	g2="W" 	k="33" />
<hkern g1="t" 	g2="V" 	k="68" />
<hkern g1="t" 	g2="Y" 	k="76" />
<hkern g1="u,z,ugrave,uacute,ucircumflex,udieresis,afii10069,afii10074,afii10077,afii10078,afii10079,afii10081,afii10088,afii10089,afii10090,afii10091,afii10093,afii10097,afii10193" 	g2="question" 	k="55" />
<hkern g1="u,z,ugrave,uacute,ucircumflex,udieresis,afii10069,afii10074,afii10077,afii10078,afii10079,afii10081,afii10088,afii10089,afii10090,afii10091,afii10093,afii10097,afii10193" 	g2="T,afii10051,afii10060,afii10036,afii10041,afii10044" 	k="139" />
<hkern g1="u,z,ugrave,uacute,ucircumflex,udieresis,afii10069,afii10074,afii10077,afii10078,afii10079,afii10081,afii10088,afii10089,afii10090,afii10091,afii10093,afii10097,afii10193" 	g2="W" 	k="61" />
<hkern g1="u,z,ugrave,uacute,ucircumflex,udieresis,afii10069,afii10074,afii10077,afii10078,afii10079,afii10081,afii10088,afii10089,afii10090,afii10091,afii10093,afii10097,afii10193" 	g2="V" 	k="115" />
<hkern g1="u,z,ugrave,uacute,ucircumflex,udieresis,afii10069,afii10074,afii10077,afii10078,afii10079,afii10081,afii10088,afii10089,afii10090,afii10091,afii10093,afii10097,afii10193" 	g2="Y" 	k="184" />
<hkern g1="v" 	g2="T,afii10051,afii10060,afii10036,afii10041,afii10044" 	k="57" />
<hkern g1="v" 	g2="W" 	k="14" />
<hkern g1="v" 	g2="V" 	k="35" />
<hkern g1="v" 	g2="Y" 	k="123" />
<hkern g1="v" 	g2="A,afii10058,afii10017,afii10021,afii10029" 	k="41" />
<hkern g1="v" 	g2="comma,period,quotesinglbase,quotedblbase,ellipsis" 	k="131" />
<hkern g1="v" 	g2="X,afii10062,afii10024,afii10037,afii10039" 	k="70" />
<hkern g1="w" 	g2="T,afii10051,afii10060,afii10036,afii10041,afii10044" 	k="57" />
<hkern g1="w" 	g2="V" 	k="27" />
<hkern g1="w" 	g2="Y" 	k="123" />
<hkern g1="w" 	g2="A,afii10058,afii10017,afii10021,afii10029" 	k="29" />
<hkern g1="w" 	g2="comma,period,quotesinglbase,quotedblbase,ellipsis" 	k="76" />
<hkern g1="w" 	g2="X,afii10062,afii10024,afii10037,afii10039" 	k="76" />
<hkern g1="y,yacute,ydieresis,afii10085,afii10110" 	g2="question" 	k="12" />
<hkern g1="y,yacute,ydieresis,afii10085,afii10110" 	g2="T,afii10051,afii10060,afii10036,afii10041,afii10044" 	k="57" />
<hkern g1="y,yacute,ydieresis,afii10085,afii10110" 	g2="W" 	k="14" />
<hkern g1="y,yacute,ydieresis,afii10085,afii10110" 	g2="V" 	k="27" />
<hkern g1="y,yacute,ydieresis,afii10085,afii10110" 	g2="Y" 	k="123" />
<hkern g1="y,yacute,ydieresis,afii10085,afii10110" 	g2="A,afii10058,afii10017,afii10021,afii10029" 	k="41" />
<hkern g1="y,yacute,ydieresis,afii10085,afii10110" 	g2="comma,period,quotesinglbase,quotedblbase,ellipsis" 	k="111" />
<hkern g1="y,yacute,ydieresis,afii10085,afii10110" 	g2="X,afii10062,afii10024,afii10037,afii10039" 	k="70" />
<hkern g1="X,afii10039" 	g2="C,G,O,Q,afii10053,afii10032,afii10035,afii10038" 	k="61" />
<hkern g1="X,afii10039" 	g2="f" 	k="61" />
<hkern g1="X,afii10039" 	g2="t" 	k="61" />
<hkern g1="X,afii10039" 	g2="w,afii10089" 	k="76" />
<hkern g1="X,afii10039" 	g2="v" 	k="70" />
<hkern g1="X,afii10039" 	g2="y,yacute,ydieresis,afii10085,afii10110" 	k="70" />
<hkern g1="X,afii10039" 	g2="hyphen,endash,emdash" 	k="94" />
<hkern g1="zero,nine" 	g2="comma,period,quotesinglbase,quotedblbase,ellipsis" 	k="43" />
<hkern g1="seven" 	g2="comma,period,quotesinglbase,quotedblbase,ellipsis" 	k="193" />
<hkern g1="x,afii10087" 	g2="T,afii10051,afii10060,afii10036,afii10041,afii10044" 	k="78" />
<hkern g1="x,afii10087" 	g2="W" 	k="53" />
<hkern g1="x,afii10087" 	g2="V" 	k="53" />
<hkern g1="x,afii10087" 	g2="Y" 	k="158" />
<hkern g1="x,afii10087" 	g2="c,d,e,g,o,q,cent,ccedilla,egrave,eacute,ecircumflex,edieresis,eth,ograve,oacute,ocircumflex,otilde,odieresis,oslash,oe,afii10066,afii10070,afii10080,afii10083,afii10086,afii10071,afii10101" 	k="70" />
<hkern g1="parenleft,bracketleft,braceleft" 	g2="j,afii10105" 	k="-225" />
</font>
</defs></svg> 