<?xml version="1.0" encoding="UTF-8" standalone="no"?>
<svg
   xmlns:dc="http://purl.org/dc/elements/1.1/"
   xmlns:cc="http://creativecommons.org/ns#"
   xmlns:rdf="http://www.w3.org/1999/02/22-rdf-syntax-ns#"
   xmlns:svg="http://www.w3.org/2000/svg"
   xmlns="http://www.w3.org/2000/svg"
   xmlns:sodipodi="http://sodipodi.sourceforge.net/DTD/sodipodi-0.dtd"
   xmlns:inkscape="http://www.inkscape.org/namespaces/inkscape"
   version="1.1"
   x="0px"
   y="0px"
   viewBox="0 0 70 63.820999"
   enable-background="new 0 0 100 100"
   xml:space="preserve"
   id="svg2"
   inkscape:version="0.91 r13725"
   sodipodi:docname="boxes2.svg"
   width="70"
   height="63.820999"><metadata
     id="metadata22"><rdf:RDF><cc:Work
         rdf:about=""><dc:format>image/svg+xml</dc:format><dc:type
           rdf:resource="http://purl.org/dc/dcmitype/StillImage" /><dc:title></dc:title></cc:Work></rdf:RDF></metadata><defs
     id="defs20" /><sodipodi:namedview
     pagecolor="#ffffff"
     bordercolor="#666666"
     borderopacity="1"
     objecttolerance="10"
     gridtolerance="10"
     guidetolerance="10"
     inkscape:pageopacity="0"
     inkscape:pageshadow="2"
     inkscape:window-width="1920"
     inkscape:window-height="1025"
     id="namedview18"
     showgrid="false"
     inkscape:zoom="7.552"
     inkscape:cx="18.778595"
     inkscape:cy="52.593332"
     inkscape:window-x="0"
     inkscape:window-y="0"
     inkscape:window-maximized="1"
     inkscape:current-layer="svg2" /><g
     id="g4"
     transform="matrix(0.69364162,0,0,0.69364162,0.70150282,-3.627882)"
     style="fill:#ffffff"><path
       d="m 92.697,83.033 0,-1.779 -86.5,0 0,1.779 4.447,0 0,5.855 -4.447,0 0,1.779 86.5,0 0,-1.779 -4.447,0 0,-5.855 4.447,0 z m -75.233,0 28.574,0 0,5.855 -28.574,0 0,-5.855 z m 35.392,5.856 0,-5.855 28.574,0 0,5.855 -28.574,0 z"
       id="path6"
       inkscape:connector-curvature="0"
       style="fill:#ffffff" /><path
       d="m 6.197,46.565 0,33.354 38.247,0 0,-33.354 -38.247,0 z m 22.533,32.465 -6.819,0 0,-9.044 0.519,-0.462 0.779,0.462 0.444,-0.776 0.556,0.481 0.556,-0.891 0.556,0.409 0.667,-0.409 0.556,0.409 0.778,-0.353 0,1.129 1.408,-0.295 0,9.34 z m 0,-22.533 -0.518,0.464 -0.779,-0.464 -0.444,0.778 -0.556,-0.482 -0.556,0.89 -0.556,-0.407 -0.667,0.407 -0.556,-0.407 -0.778,0.352 0,-1.13 -1.408,0.296 0,-9.339 6.819,0 0,9.042 z"
       id="path8"
       inkscape:connector-curvature="0"
       style="fill:#ffffff" /><path
       d="m 46,46.565 0,33.354 46.697,0 0,-33.354 -46.697,0 z m 42.744,25.868 0,5.856 -3.015,0 0,-5.856 -2.24,0 3.747,-5.346 3.747,5.346 -2.239,0 z"
       id="path10"
       inkscape:connector-curvature="0"
       style="fill:#ffffff" /><path
       d="m 6.197,11.802 0,33.355 46.697,0 0,-33.355 -46.697,0 z m 10.704,13.97 c 0,0.472 -1.61,0.854 -3.596,0.854 -1.987,0 -3.596,-0.382 -3.596,-0.854 0,-0.438 1.384,-0.798 3.168,-0.848 l 0,-4.882 C 10.797,19.725 9.174,17.119 9.174,13.951 l 4.645,0 -0.314,1.738 -0.2,1.107 0.81,-0.651 c 0.139,-0.112 0.279,-0.223 0.42,-0.333 l -0.651,2.554 1.419,-3.229 0.289,-0.656 -0.692,0.353 c -0.112,0.057 -0.224,0.115 -0.336,0.173 l 0.377,-1.055 2.493,0 c 0,3.168 -1.623,5.773 -3.704,6.091 l 0,4.882 c 1.786,0.049 3.171,0.409 3.171,0.847 z m 31.472,12.046 0,5.856 -3.014,0 0,-5.856 -2.241,0 3.748,-5.346 3.749,5.346 -2.242,0 z"
       id="path12"
       inkscape:connector-curvature="0"
       style="fill:#ffffff" /></g></svg>