<?xml version="1.0" encoding="UTF-8" standalone="no"?>
<svg
   xmlns:dc="http://purl.org/dc/elements/1.1/"
   xmlns:cc="http://creativecommons.org/ns#"
   xmlns:rdf="http://www.w3.org/1999/02/22-rdf-syntax-ns#"
   xmlns:svg="http://www.w3.org/2000/svg"
   xmlns="http://www.w3.org/2000/svg"
   xmlns:sodipodi="http://sodipodi.sourceforge.net/DTD/sodipodi-0.dtd"
   xmlns:inkscape="http://www.inkscape.org/namespaces/inkscape"
   version="1.1"
   x="0px"
   y="0px"
   viewBox="0 0 100 100"
   enable-background="new 0 0 64 64"
   xml:space="preserve"
   id="svg2"
   inkscape:version="0.91 r13725"
   sodipodi:docname="safety.svg"
   width="100"
   height="100"><metadata
     id="metadata14"><rdf:RDF><cc:Work
         rdf:about=""><dc:format>image/svg+xml</dc:format><dc:type
           rdf:resource="http://purl.org/dc/dcmitype/StillImage" /><dc:title></dc:title></cc:Work></rdf:RDF></metadata><defs
     id="defs12" /><sodipodi:namedview
     pagecolor="#ffffff"
     bordercolor="#666666"
     borderopacity="1"
     objecttolerance="10"
     gridtolerance="10"
     guidetolerance="10"
     inkscape:pageopacity="0"
     inkscape:pageshadow="2"
     inkscape:window-width="1920"
     inkscape:window-height="1025"
     id="namedview10"
     showgrid="false"
     inkscape:zoom="8.34386"
     inkscape:cx="41.3144"
     inkscape:cy="53.198358"
     inkscape:window-x="0"
     inkscape:window-y="0"
     inkscape:window-maximized="1"
     inkscape:current-layer="svg2" /><path
     d="M 89.081097,13.172494 C 88.017775,13.093141 86.986192,12.950307 85.922869,12.870954 83.431201,12.601156 81.082368,12.378969 78.812887,11.982206 70.242818,10.379286 62.323441,6.9512592 54.642121,1.5870317 53.277258,0.60306105 51.769561,0.09520505 50.245993,0.03172275 l 0,-0.031738 c -0.09522,0 -0.174575,0.015873 -0.253927,0.015873 -0.07936,0 -0.158705,-0.015873 -0.238058,-0.015873 l 0,0.031738 c -1.539439,0.063484 -3.047136,0.5713383 -4.396128,1.55530895 -7.68132,5.3642275 -15.600698,8.7922543 -24.170766,10.3951743 -2.269481,0.396763 -4.618314,0.61895 -7.109982,0.888748 -1.063323,0.07935 -2.094906,0.222187 -3.158229,0.30154 -4.7928905,0.444374 -7.0623715,4.189811 -7.0623715,7.69719 0.2697985,16.26726 3.1106173,30.02698 8.7129035,42.167909 7.014759,15.108712 18.346293,27.186162 33.772416,35.994282 0.920489,0.55547 2.126647,0.87288 3.412157,0.95224 l 0,0.01591 c 0.07936,0 0.158705,0 0.238058,-0.01591 0.07935,0.01591 0.158705,0.01591 0.253927,0.01591 l 0,-0.01591 c 1.26964,-0.0794 2.475798,-0.39677 3.412157,-0.95224 15.426123,-8.80812 26.757657,-20.88557 33.772415,-35.994282 5.602287,-12.14093 8.443102,-25.900649 8.712903,-42.167909 0,-3.507379 -2.269482,-7.252816 -7.062371,-7.69719 z M 79.273131,58.562113 C 73.16299,71.734626 63.228059,82.3996 49.769878,90.239625 l 0,-40.453895 -32.994762,0 c -2.809078,-8.347882 -4.15807,-16.949692 -4.411998,-27.233773 0.285669,-0.03174 0.555468,-0.06348 0.825266,-0.07935 0.428503,-0.04761 0.857007,-0.09522 1.301381,-0.126965 l 1.380733,-0.142834 c 2.142517,-0.238057 4.364387,-0.476115 6.681479,-0.872877 9.649262,-1.809237 18.55261,-5.602286 27.217901,-11.5695917 l 0.06666,39.9698457 33.089985,0 c -0.999842,3.031265 -2.256784,5.816535 -3.653389,8.83193 z"
     id="path4"
     inkscape:connector-curvature="0"
     style="fill:#545758;fill-opacity:1" /></svg>