<?xml version="1.0" encoding="UTF-8" standalone="no"?>
<svg
   xmlns:dc="http://purl.org/dc/elements/1.1/"
   xmlns:cc="http://creativecommons.org/ns#"
   xmlns:rdf="http://www.w3.org/1999/02/22-rdf-syntax-ns#"
   xmlns:svg="http://www.w3.org/2000/svg"
   xmlns="http://www.w3.org/2000/svg"
   xmlns:sodipodi="http://sodipodi.sourceforge.net/DTD/sodipodi-0.dtd"
   xmlns:inkscape="http://www.inkscape.org/namespaces/inkscape"
   version="1.1"
   x="0px"
   y="0px"
   viewBox="0 0 70 70"
   enable-background="new 0 0 90 90"
   xml:space="preserve"
   id="svg2"
   inkscape:version="0.91 r13725"
   sodipodi:docname="train-car-2.svg"
   width="70"
   height="70"><metadata
     id="metadata122"><rdf:RDF><cc:Work
         rdf:about=""><dc:format>image/svg+xml</dc:format><dc:type
           rdf:resource="http://purl.org/dc/dcmitype/StillImage" /><dc:title></dc:title></cc:Work></rdf:RDF></metadata><defs
     id="defs120" /><sodipodi:namedview
     pagecolor="#ffffff"
     bordercolor="#666666"
     borderopacity="1"
     objecttolerance="10"
     gridtolerance="10"
     guidetolerance="10"
     inkscape:pageopacity="0"
     inkscape:pageshadow="2"
     inkscape:window-width="1920"
     inkscape:window-height="1025"
     id="namedview118"
     showgrid="false"
     inkscape:zoom="8"
     inkscape:cx="32.791295"
     inkscape:cy="27.752434"
     inkscape:window-x="0"
     inkscape:window-y="0"
     inkscape:window-maximized="1"
     inkscape:current-layer="svg2" /><g
     id="g3462"
     transform="matrix(2.3835108,0,0,2.3835108,-140.61654,-31.704933)"
     style="fill:#ffffff"><polygon
       id="polygon46"
       points="87.136,29.995 60.22,29.995 60.22,23.521 67.112,23.521 87.136,23.521 "
       style="fill:#ffffff" /><polygon
       id="polygon48"
       points="64.307,27.551 66.668,27.551 66.668,24.921 61.85,24.921 61.85,27.551 "
       style="fill:#ffffff" /><polygon
       id="polygon50"
       points="70.257,27.551 72.617,27.551 72.617,24.921 67.802,24.921 67.802,27.551 "
       style="fill:#ffffff" /><polygon
       id="polygon52"
       points="76.135,27.551 78.495,27.551 78.495,24.921 73.679,24.921 73.679,27.551 "
       style="fill:#ffffff" /><polygon
       id="polygon54"
       points="82.154,27.551 84.517,27.551 84.517,24.921 79.699,24.921 79.699,27.551 "
       style="fill:#ffffff" /><polygon
       id="polygon56"
       points="61.185,31.882 61.185,30.364 67.842,30.364 67.842,31.882 67.205,31.882 67.205,31.123 65.858,31.123 65.854,31.882 63.31,31.882 63.31,31.123 61.987,31.123 61.987,31.882 "
       style="fill:#ffffff" /><ellipse
       id="ellipse58"
       ry="0.56900001"
       rx="0.53200001"
       cy="31.882"
       cx="62.660999"
       style="fill:#ffffff" /><ellipse
       id="ellipse60"
       ry="0.56900001"
       rx="0.53200001"
       cy="31.882"
       cx="66.541"
       style="fill:#ffffff" /><rect
       id="rect62"
       height="0.177"
       width="3.8559999"
       y="30.106001"
       x="62.389"
       style="fill:#ffffff" /><polygon
       id="polygon64"
       points="77.724,31.848 77.724,30.331 84.38,30.331 84.38,31.848 83.745,31.848 83.745,31.09 82.399,31.09 82.392,31.848 79.847,31.848 79.847,31.09 78.525,31.09 78.525,31.848 "
       style="fill:#ffffff" /><ellipse
       id="ellipse66"
       ry="0.56900001"
       rx="0.53200001"
       cy="31.848"
       cx="79.198997"
       style="fill:#ffffff" /><ellipse
       id="ellipse68"
       ry="0.56900001"
       rx="0.53200001"
       cy="31.848"
       cx="83.080002"
       style="fill:#ffffff" /><rect
       id="rect70"
       height="0.178"
       width="3.8559999"
       y="30.073"
       x="78.928001"
       style="fill:#ffffff" /><g
       id="g3456"
       style="fill:#ffffff"><rect
         x="87.177002"
         y="28.580999"
         width="0.616"
         height="0.86799997"
         id="rect72"
         style="fill:#ffffff" /><rect
         x="87.841003"
         y="28.632"
         width="0.090999998"
         height="0.76599997"
         id="rect74"
         style="fill:#ffffff" /><rect
         x="88.295998"
         y="28.639999"
         width="0.068000004"
         height="0.75"
         id="rect76"
         style="fill:#ffffff" /><rect
         x="87.960999"
         y="28.844"
         width="0.34400001"
         height="0.34"
         id="rect78"
         style="fill:#ffffff" /></g><g
       transform="translate(1.8705548,-0.09600097)"
       id="g3450"
       style="fill:#ffffff"><rect
         x="57.695"
         y="28.6765"
         width="0.61699998"
         height="0.86900002"
         id="rect106"
         style="fill:#ffffff" /><rect
         x="57.555"
         y="28.7285"
         width="0.092"
         height="0.76499999"
         id="rect108"
         style="fill:#ffffff" /><rect
         x="57.125"
         y="28.7365"
         width="0.067000002"
         height="0.74900001"
         id="rect110"
         style="fill:#ffffff" /><rect
         x="57.183998"
         y="28.9405"
         width="0.34400001"
         height="0.34099999"
         id="rect112"
         style="fill:#ffffff" /></g></g></svg>